<?xml version="1.0" encoding="UTF-8" standalone="no"?>
<svg
   xmlns:dc="http://purl.org/dc/elements/1.1/"
   xmlns:cc="http://creativecommons.org/ns#"
   xmlns:rdf="http://www.w3.org/1999/02/22-rdf-syntax-ns#"
   xmlns:svg="http://www.w3.org/2000/svg"
   xmlns="http://www.w3.org/2000/svg"
   xmlns:sodipodi="http://sodipodi.sourceforge.net/DTD/sodipodi-0.dtd"
   xmlns:inkscape="http://www.inkscape.org/namespaces/inkscape"
   width="1920"
   height="900"
   version="1.1"
   id="svg326"
   sodipodi:docname="git-add.svg"
   inkscape:version="0.92.4 (5da689c313, 2019-01-14)">
  <metadata
     id="metadata332">
    <rdf:RDF>
      <cc:Work
         rdf:about="">
        <dc:format>image/svg+xml</dc:format>
        <dc:type
           rdf:resource="http://purl.org/dc/dcmitype/StillImage" />
        <dc:title />
      </cc:Work>
    </rdf:RDF>
  </metadata>
  <defs
     id="defs330" />
  <sodipodi:namedview
     pagecolor="#ffffff"
     bordercolor="#666666"
     borderopacity="1"
     objecttolerance="10"
     gridtolerance="10"
     guidetolerance="10"
     inkscape:pageopacity="0"
     inkscape:pageshadow="2"
     inkscape:window-width="2560"
     inkscape:window-height="1376"
     id="namedview328"
     showgrid="false"
     inkscape:snap-global="false"
     inkscape:zoom="1.1237522"
     inkscape:cx="939.73728"
     inkscape:cy="466.28626"
     inkscape:window-x="1920"
     inkscape:window-y="27"
     inkscape:window-maximized="1"
     inkscape:current-layer="svg326" />
  <g
     id="g1551"
     transform="matrix(3.1655745,0,0,3.1655745,-430.96234,-525.96735)">
    <path
       inkscape:connector-curvature="0"
       style="fill:#000000;fill-opacity:1;stroke:none;stroke-opacity:1"
       id="path2"
       d="m 189.5,219.5 c 0,0 0.4,0.1 0.5,0.3 0.2,0.4 0.4,0.7 0.5,1.1 0.5,1.3 0.6,2.5 0.8,3.9 0.5,2.9 0.8,7.4 1.1,10 0,0.5 0,1.1 0,1.6 0.1,0.7 -0.2,3.6 -1.5,2.4 0,0 -0.3,-0.5 -0.3,-0.7 0,-0.6 0,-1.2 0,-1.8 0,-0.8 -0.2,-1.6 -0.2,-2.3 -0.5,-4 -0.7,-6.3 -1.1,-9.8 -0.1,0 -0.3,-0.1 -0.4,-0.1 -0.1,-0.1 -0.1,-0.4 -0.1,-0.5 0,-1.3 -0.1,-1.9 -0.2,-3.2 0,0 -0.1,-0.2 0,-0.3 0.1,-0.3 0.1,-0.5 0.5,-0.6 0.5,-0.2 0.8,0.2 1.1,0.6 m 0.7,18.7 c 0,0 0,0 0,0" />
    <path
       inkscape:connector-curvature="0"
       style="fill:#000000;fill-opacity:1;stroke:none;stroke-opacity:1"
       id="path4"
       d="m 190.6,221.2 c 0,0 1,0 1.4,0 0.5,0 1,0.1 1.5,0.2 1.9,0.4 3.7,1.4 4.9,3 2.2,3.1 0.9,6.6 -1.6,9.1 0,0 0.4,0 0.6,0 0.5,0.1 1.1,0.2 1.7,0.2 1.6,0.2 3.5,0.9 5,1.3 0.4,0.1 0.7,0.5 0.6,0.9 -0.1,0.8 -1.2,0.9 -1.8,0.8 -3,-0.8 -5.8,-1.2 -8.9,-1.4 -0.1,0 -0.5,0.2 -0.8,0.3 -0.8,0.2 -2.2,0.5 -2.7,-0.6 -0.8,-1.8 2.1,-1.7 3.1,-1.7 0,0 0.3,-0.2 0.5,-0.2 0.3,-0.2 0.6,-0.4 0.9,-0.6 0.6,-0.5 1,-1.1 1.5,-1.7 1.4,-1.8 1.4,-3.9 -0.1,-5.6 -2.2,-2.5 -6,-2.2 -9.1,-1.6 -1.6,0.3 -3,0.9 -3.8,2.4 0,0.1 0,0.1 0,0.1 0,0 0,0 0,0 0,0 -0.3,0.4 -0.5,0.5 -0.3,0 -0.5,-0.3 -0.6,-0.5 -0.4,-1.1 0.1,-2.5 1.1,-3.1 2.7,-1.9 6.8,-2.1 9.9,-1.6" />
    <path
       inkscape:connector-curvature="0"
       style="fill:#000000;fill-opacity:1;stroke:none;stroke-opacity:1"
       id="path6"
       d="m 206.2,223.8 c 0,0 0.5,0.2 0.7,0.4 0.2,0.3 0.2,0.9 0.2,1.2 0,0.9 -0.3,1.8 -0.4,2.6 -0.1,1 0.1,2 0.5,3 1.2,3 4,3.3 6.9,3.7 0.1,0 0.2,-0.5 0.4,-0.6 0.2,-0.1 0.5,0 0.7,0.1 0.5,0.6 0.9,1.7 0.2,2.2 -0.9,0.6 -2.6,0.2 -3.3,0.1 -1.9,-0.3 -4,-1 -5.3,-2.4 -1.9,-2.2 -2.2,-4.9 -1.8,-7.6 0,-0.5 0.5,-3.8 1.8,-2.4" />
    <path
       inkscape:connector-curvature="0"
       style="fill:#000000;fill-opacity:1;stroke:none;stroke-opacity:1"
       id="path8"
       d="m 205.1,226.8 c 0,0 1,0 1.5,0 2.7,0 4.6,0.1 7.2,0.2 0.4,0 0.8,0.2 0.9,0.7 0.4,1.7 -2.9,1.2 -3.3,1.2 -1.9,-0.1 -3.9,-0.1 -5.8,-0.1 0,0 0.2,0.6 0,0.8 -0.2,0.2 -0.6,0.2 -0.8,0.1 -0.8,-0.3 -1.9,-1.3 -1.2,-2.3 0.6,-0.9 2.1,-0.6 3,-0.6 1.6,0 3.2,0 4.8,0.1" />
    <path
       inkscape:connector-curvature="0"
       style="fill:#000000;fill-opacity:1;stroke:none;stroke-opacity:1"
       id="path10"
       d="m 217.4,221.3 c 0,0 0.6,0 0.8,0.1 0.3,0 0.5,0.1 0.7,0.2 1,0.5 1.5,1.5 1.8,2.6 0.6,2.2 0.2,4.5 0.6,6.8 0.2,1 1.1,2.2 1,3.2 -0.1,1.4 -1.7,0.9 -1.9,-0.1 0,0 -0.4,-1 -0.6,-1.4 -0.4,-0.9 -0.4,-1.9 -0.6,-2.8 0,-0.1 0,-0.1 0,-0.2 0,-1.3 -0.1,-2.6 -0.2,-3.9 0,-0.9 -0.1,-2.1 -0.8,-2.7 0,0 -0.8,0 -1.2,0 -1.1,0.1 -2.2,0.2 -3.2,0.3 -1.4,0.1 -2.9,0.4 -4.2,0.8 -0.7,0.3 -1.8,0.4 -2.4,1 0,0 -0.4,0.5 -0.7,0.5 -0.3,-0.1 -0.4,-0.4 -0.5,-0.6 0,0 0,-0.4 0,-0.6 0.2,-0.4 0.3,-0.7 0.6,-1 0.6,-0.7 1.7,-0.9 2.5,-1.2 2.2,-0.7 4.6,-0.8 6.9,-1 0.9,-0.1 2,-0.1 2.9,0.3 m 2.2,11.8 c 0,0 0,0 0,0 0,0 0.1,0 0.1,0 M 206,225.1 c 0,0 0,0 0,0 m 0,0 c 0,0 0,-0.1 0,-0.1" />
    <path
       inkscape:connector-curvature="0"
       style="fill:#000000;fill-opacity:1;stroke:none;stroke-opacity:1"
       id="path12"
       d="m 227.6,223.8 c 0,0 0.6,0.1 0.8,0.3 0.4,0.2 0.7,0.8 0.8,1.2 0.3,2 -0.1,4.1 1,6 0,0 0.3,-0.5 0.4,-0.8 0.2,-0.5 0.3,-1.2 0.8,-1.4 0,0 0.1,-0.4 0.1,-0.6 0.1,-0.3 0.2,-0.6 0.4,-0.8 0.8,-0.9 1.7,-1.5 2.8,-1.7 2.7,-0.6 5.6,0.4 7.8,1.9 0.7,0.6 1.5,1.7 1.5,2.7 0,1.7 -2,2.4 -3.3,2.9 -2.9,1 -7.3,0.3 -9.1,-2.4 0,0 0,0.4 -0.1,0.7 -0.1,0.4 -0.2,0.9 -0.4,1.2 -0.5,0.5 -1.3,0.6 -1.9,0.2 -2.2,-1.4 -1.5,-5.3 -2,-7.4 0,0 -1.7,0.6 -2.6,0.9 -2.2,0.7 -4.2,0.9 -6.2,-0.4 -0.3,-0.2 -1.3,-0.9 -1.1,-1.5 0.2,-0.8 1.1,-0.5 1.6,-0.3 1.2,0.4 1.7,0.9 3,0.8 1.1,-0.1 2.4,-0.6 3.4,-0.9 1.2,-0.4 2.1,-0.9 3.2,-0.3 m 7.9,3.7 c 0,0 -0.8,0 -1.1,0.1 -1,0.3 -1.6,0.6 -2.1,1.5 0,0 -0.1,0.5 -0.3,0.6 0,0 0.2,0.2 0.3,0.4 0.2,0.2 0.4,0.3 0.6,0.5 0.6,0.4 1.2,0.6 1.9,0.8 1.9,0.6 4.9,0.4 6.3,-1.1 0,0 -0.1,-0.3 -0.1,-0.4 -0.1,-0.1 -0.3,-0.3 -0.4,-0.5 -0.4,-0.4 -1,-0.7 -1.5,-1 -1.6,-0.9 -3.6,-1 -5.3,-0.6" />
    <path
       inkscape:connector-curvature="0"
       style="fill:#000000;fill-opacity:1;stroke:none;stroke-opacity:1"
       id="path14"
       d="m 250.4,224.3 c 0,0 0.3,0 0.4,0 0.1,0 0.3,0.2 0.4,0.4 0.4,0.6 0.6,1.4 0.7,2.2 0.1,1.7 0,3.5 0.3,5.3 0.2,1.3 0.6,2.5 1.1,3.7 0,0 0.1,0.2 0.1,0.3 0,0 0.2,0.3 0.1,0.3 0,0 -0.1,-0.2 -0.1,-0.2 0,0 0,0.2 0,0.3 -0.1,0.3 -0.2,0.5 -0.5,0.6 -0.4,0.2 -0.9,0 -1.2,-0.3 -0.4,-0.4 -0.6,-1.1 -0.8,-1.7 -0.5,-1.6 -0.9,-3.3 -0.9,-5 0,-0.9 0.1,-2.4 0,-3.5 0,-0.4 -0.4,-3.3 1.1,-2.2" />
    <path
       inkscape:connector-curvature="0"
       style="fill:#000000;fill-opacity:1;stroke:none;stroke-opacity:1"
       id="path16"
       d="m 253.3,223.7 c 0,0 1.2,-0.1 1.8,0 1.9,0.2 4.5,0.1 5.9,1.6 1.3,1.5 0.2,3.9 -0.4,5.5 -0.1,0.1 -1.1,1.7 -0.6,2.2 0.5,0.6 1.8,0.6 2.5,0.6 0.7,0.1 1.5,0.2 2.2,0.2 0.9,0.1 1.8,0.1 2.7,0.1 0,0 -0.8,-0.9 -0.8,-1.4 0.1,-0.2 0.4,-0.5 0.6,-0.5 0.1,0 0.4,0.1 0.5,0.2 0.7,0.5 3.1,1.8 2,3.2 -0.4,0.5 -1.2,0.5 -1.8,0.5 -3.4,-0.1 -2.9,0 -6.1,-0.4 -1,-0.1 -2,-0.2 -2.8,-0.8 -2.1,-1.6 -0.5,-3.9 0.3,-5.8 0.3,-0.9 1,-2.4 -0.2,-2.8 -3.4,-1.2 -7,-0.6 -10.3,0.1 -0.7,0.1 -1.7,0.5 -2.4,0.9 -0.4,0.2 -0.7,0.5 -1.1,0.7 -0.4,0.1 -1,0.1 -1,-0.5 -0.1,-1 1.7,-2 2.4,-2.3 3.2,-1.3 6.7,-1.5 10.1,-1.2" />
    <path
       inkscape:connector-curvature="0"
       style="fill:#000000;fill-opacity:1;stroke:none;stroke-opacity:1"
       id="path18"
       d="m 267.7,227.9 c 0,0 0.3,0 0.4,0.1 0.2,0.2 0.6,0.3 0.8,0.5 0.4,0.5 0.3,1.3 -0.2,1.7 -0.5,0.3 -1.2,0.3 -1.7,0.3 -3.1,0.2 -3.3,0.2 -6,0.2 -0.5,0 -1.3,0.2 -1.5,-0.3 -0.1,-0.2 -0.1,-0.5 0,-0.6 0,0 0.3,-0.2 0.3,-0.2 0,0.2 0.4,-0.3 0.6,-0.4 0.7,-0.2 0.9,-0.3 1.6,-0.4 1.7,-0.3 3.4,-0.2 5.1,-0.3 0,0 0.3,-0.6 0.5,-0.6 0.4,-0.1 1.1,0.5 1.3,0.6" />
    <path
       inkscape:connector-curvature="0"
       style="fill:#000000;fill-opacity:1;stroke:none;stroke-opacity:1"
       id="path20"
       d="m 275,220.8 c 0,0 0.2,0 0.3,0.1 0.2,0.1 0.4,0.4 0.3,0.7 0,0.3 -0.5,0.7 -0.8,0.8 -0.2,0.2 -0.5,0.2 -0.8,0.3 -5.9,0.7 -7,0.9 -12.7,1.7 -0.6,0.1 -1.3,0.2 -1.9,0.4 -0.1,0.1 -0.5,0.5 -0.6,0.4 0,0 -0.2,0.2 -0.4,0.2 -0.2,0.1 -0.6,-0.1 -0.7,-0.4 -0.3,-0.8 0.9,-1.7 1.4,-2 0.7,-0.3 1.5,-0.4 2.1,-0.5 6.1,-1 5.4,-0.9 11.8,-1.7 0.8,-0.1 1.9,-0.3 2.5,0.3" />
  </g>
  <path
     d="m 221.46257,122.65887 c 0,0 2.84903,0 4.43182,0 1.58278,0 2.84901,0.31655 4.4318,0.31655 5.38147,0.63311 11.07951,3.79869 15.51131,7.28082 1.89935,1.58279 3.7987,3.79869 4.43181,6.33115 1.58279,5.06493 -2.84903,6.64771 -6.96426,5.38148 0,0 -1.26624,-1.26623 -0.94968,-1.89934 0,-1.26624 1.58279,-1.26624 2.53246,-1.26624 0,0 -0.94967,-1.58278 -1.26623,-2.2159 -0.63312,-0.94967 -1.58279,-1.89935 -2.53247,-2.53246 -3.79868,-2.53246 -7.59737,-4.4318 -12.34573,-5.06491 -5.06492,-1.26624 -10.76295,-0.31656 -15.82788,0.31655 -6.96426,0.63311 -14.8782,2.2159 -21.5259,4.74836 -6.0146,2.2159 -8.54705,5.38148 -9.81328,11.39608 -0.63312,1.89933 -0.63312,4.4318 0.63311,5.69802 0.63312,0.63312 1.58279,1.26624 2.21591,1.26624 1.26623,0 4.4318,-2.2159 4.74835,0.63311 0,1.89935 -2.53245,3.16557 -3.79869,3.48214 -3.79868,1.26622 -7.91393,-0.94968 -9.18016,-4.43181 -0.94967,-2.53247 -0.94967,-5.38148 -0.63311,-7.91394 1.26622,-14.24509 17.0941,-17.72721 28.80672,-19.94311 2.84903,-0.31657 7.28083,-0.94968 9.18017,-1.26624 2.53246,-0.31655 5.38148,-0.31655 7.28082,-0.31655 3.16558,-0.31656 6.33115,0 9.49673,0.31655"
     id="path22"
     style="fill:#000000;fill-opacity:1;stroke:none;stroke-width:3.16557455;stroke-opacity:1"
     inkscape:connector-curvature="0" />
  <path
     d="m 165.43191,138.48674 c 0,0 2.84902,0 4.11524,0 1.58279,0.31655 3.16558,0.63312 4.74836,0.94967 5.38149,1.58278 7.28083,5.69803 11.39608,9.18017 0,0.31655 0.94967,1.58279 0.63311,2.2159 -0.31656,0.63311 -1.26623,0.94967 -1.89934,0.94967 -0.63312,-0.31656 -1.58279,-1.26623 -2.21591,-1.58278 -1.26623,-1.26624 -2.84901,-2.84903 -4.74836,-3.48214 -3.48213,-1.58279 -8.23049,-2.53246 -12.02918,-2.53246 -14.24508,-0.31655 -28.17361,4.43181 -41.15247,9.49672 -4.4318,1.89935 -9.81329,4.11525 -12.97885,8.2305 0,0 3.16556,-0.63311 4.74835,-0.63311 3.16558,0 7.59739,1.26622 7.28083,5.38147 -0.31656,1.89934 -1.58279,3.16558 -2.84902,4.11524 -3.79868,3.16558 -9.81328,1.89935 -12.97886,-1.58279 0,0 -1.26622,0.63313 -1.58279,0.94968 -1.58278,0.63311 -2.84901,1.58279 -4.11523,2.2159 -2.532466,1.58279 -4.748366,3.16557 -6.964278,4.74836 -8.54705,6.0146 -15.511312,16.14444 -13.928524,27.22395 0.949674,8.54705 7.913937,17.0941 16.460986,18.99345 2.849026,0.63311 5.698036,-0.31656 8.547046,-0.94968 3.48214,-0.63311 7.28083,-2.53246 10.4464,-3.79868 0.94968,-0.31657 2.53247,-0.63313 3.16558,0 2.84901,1.58278 0.31656,4.11523 -1.58279,5.06491 -6.01459,2.84902 -12.97885,6.64771 -20.259673,5.69804 -18.676887,-2.2159 -27.223949,-24.69149 -20.259675,-40.51935 3.165575,-7.59739 9.496725,-12.97886 16.144425,-17.72723 3.482137,-2.53246 7.280823,-5.38147 11.396073,-6.96426 0.31655,-0.31656 0,-2.2159 0.31655,-2.84901 0.94968,-2.21591 1.89935,-3.48214 3.16558,-5.06493 3.48213,-3.79868 9.18016,-6.01458 13.92852,-8.23049 15.82787,-6.6477 34.50477,-11.71263 51.59887,-8.54705 m -57.29689,27.22394 c 0,0 -3.48214,0.31655 -5.06493,0.94968 0,0 0.31656,0.31655 0.63311,0.63311 0.63313,0.63311 1.26624,0.94966 1.89935,1.26623 2.2159,0.31656 4.11525,-0.63312 5.38148,-2.2159 0,-0.31657 -1.58279,-0.63312 -2.53246,-0.63312 -1.89934,0 -3.48213,0.31655 -5.38148,0.94968"
     id="path24"
     style="fill:#000000;fill-opacity:1;stroke:none;stroke-width:3.16557455;stroke-opacity:1"
     inkscape:connector-curvature="0" />
  <path
     d="m 104.65288,229.02216 c 0,0 0.94967,0 1.26622,0 0.63313,0.31657 1.58279,1.89935 1.26624,2.53247 0,0.31656 -0.31656,2.84902 -0.31656,4.43181 -0.31655,0.94966 0,1.89934 0,2.84901 0.31656,4.11525 2.84902,8.54705 5.69804,11.39606 7.28082,7.28083 19.94312,7.91394 29.75639,7.59739 12.34574,-0.94967 25.3246,-4.43181 36.72066,-9.18017 2.53247,-1.26623 6.0146,-2.53245 7.91394,-4.74837 0.94968,-0.94966 0,-4.4318 2.2159,-4.11523 2.53246,0 3.48214,3.16557 3.16558,5.06491 -0.63312,5.38147 -7.91393,7.91394 -11.71263,9.49672 -1.89934,0.63312 -4.4318,1.89935 -6.33115,2.53247 -2.84901,0.63311 -6.01458,1.89934 -9.18016,2.84901 -17.72721,4.43181 -43.36837,8.86361 -57.61346,-6.33115 -4.11524,-4.11524 -6.96426,-10.76295 -6.6477,-16.77754 0,-2.53246 1.58279,-10.4464 6.01459,-6.64771"
     id="path26"
     style="fill:#000000;fill-opacity:1;stroke:none;stroke-width:3.16557455;stroke-opacity:1"
     inkscape:connector-curvature="0" />
  <path
     d="m 184.42536,248.01561 c 0,0 0.94966,0.31657 1.58278,0.63312 0.94967,0.63312 1.58278,1.58278 2.21591,2.84902 2.84901,3.79869 4.4318,5.06491 9.49672,6.6477 11.71263,3.7987 25.00804,6.0146 37.67034,5.06493 6.01459,-0.31657 12.02917,-0.94968 18.36032,-2.2159 1.58279,-0.63312 3.79869,-0.94968 5.06493,-2.21591 2.2159,-1.89934 1.26622,-5.38148 2.84901,-7.91393 0.63311,-0.63313 4.74836,-4.11525 5.06493,-0.63313 0.31655,0.94968 -0.63312,1.89935 -0.63312,2.84903 -0.31656,2.2159 -0.31656,4.4318 -0.94967,6.6477 -2.53246,6.64771 -12.02919,7.91394 -18.04378,8.54705 -15.19476,1.58279 -29.12328,0.63312 -44.00148,-2.84901 -5.38148,-1.26623 -12.97886,-2.84902 -16.77755,-6.96427 -1.89934,-1.89935 -2.84901,-4.74836 -3.79869,-7.28082 0,0 -0.94967,-0.31655 -0.94967,-0.94968 -0.31655,-0.63311 0,-1.58278 0.63311,-1.58278 1.89935,-1.26623 3.16557,-0.63312 4.74836,0.63312 m -3.79869,2.2159 c 0,0 0,0 0,0 0,0 0,0 0,0"
     id="path28"
     style="fill:#000000;fill-opacity:1;stroke:none;stroke-width:3.16557455;stroke-opacity:1"
     inkscape:connector-curvature="0" />
  <path
     d="m 268.31308,254.97988 c 0,0 0.94968,0.31656 1.58279,0.63312 1.89934,1.58279 4.4318,3.16557 6.6477,4.74836 6.96426,4.11524 13.92854,6.96426 21.84247,9.18016 10.76295,3.16558 22.15902,2.2159 32.92198,0.31656 9.49672,-1.58279 18.99345,-3.48213 27.85705,-6.6477 0.31656,0 -1.89934,-0.94968 -2.84902,-1.58279 -0.63311,-0.31656 -1.58278,-0.63311 -1.89935,-1.26623 -0.63311,-0.94967 0,-2.53246 0.94968,-2.84902 4.11525,-0.94968 14.24509,3.48214 9.81329,8.86361 -2.84903,3.16557 -10.4464,4.4318 -13.61198,5.06491 -14.8782,3.7987 -29.7564,6.64771 -44.95116,5.38149 -9.49672,-0.94968 -21.20935,-4.74836 -29.12328,-10.12985 -3.79869,-2.84901 -6.96427,-5.38147 -10.12984,-8.8636 -1.26623,-1.58279 0,-3.16557 1.89935,-2.53246"
     id="path30"
     style="fill:#000000;fill-opacity:1;stroke:none;stroke-width:3.16557455;stroke-opacity:1"
     inkscape:connector-curvature="0" />
  <path
     d="m 456.66476,236.9361 c 0,0 0.94968,0.31656 0.94968,0.63313 0.63311,0.63311 0.31656,1.58278 -0.31656,2.2159 -1.89934,1.58278 -4.74837,2.2159 -7.28082,3.48212 0,0.31656 0.94967,1.26624 1.58279,1.89935 0.63311,1.26623 1.89934,2.53246 2.2159,4.11525 0.94968,3.16558 -1.26624,6.33115 -4.11525,7.91394 -5.06491,2.84901 -12.34574,4.11524 -18.04377,5.38147 -17.41067,3.16558 -33.87165,5.69803 -51.59886,3.79869 -3.79869,-0.31656 -9.18018,-1.26624 -13.29542,-2.53246 -1.89935,-0.63311 -4.43181,-0.63311 -5.38148,-2.53246 -1.58279,-2.84902 3.48213,-2.53246 4.43181,-2.53246 4.4318,0.31656 10.4464,1.58279 14.8782,2.21591 10.4464,1.58278 21.5259,0.94967 31.9723,-0.94968 9.81328,-1.58279 19.31001,-3.48214 29.12328,-6.01459 0.94968,-0.31656 5.69804,-1.58278 6.33115,-3.16557 0.31657,-0.63313 -0.94967,-1.58279 -1.26622,-2.21591 -1.58279,-1.89934 -3.16558,-4.4318 -1.58279,-6.96427 1.26623,-1.89933 4.11525,-1.89933 6.33115,-2.53245 1.58279,-0.94967 5.69803,-4.11525 6.33115,-0.63312"
     id="path32"
     style="fill:#000000;fill-opacity:1;stroke:none;stroke-width:3.16557455;stroke-opacity:1"
     inkscape:connector-curvature="0" />
  <path
     d="m 469.96017,191.35183 c 0,0 2.21592,0.31656 3.48214,0.63311 0.94968,0.31656 1.89934,0.63313 3.16558,0.94968 3.48212,1.58278 6.01458,3.79868 8.54705,6.64771 1.89935,1.58279 3.16557,4.11525 4.11525,6.33115 2.84901,6.96426 5.06491,14.8782 4.11525,22.47557 -0.94968,11.71263 -12.97887,17.0941 -23.42527,18.04378 -5.38147,0.63311 -10.76294,1.58278 -15.51131,-0.31655 -0.31656,0 -0.31656,0 -0.31656,0 0,-0.31657 0,-0.31657 0,-0.31657 0,0 -1.26622,-1.26622 -0.94966,-2.2159 0.63311,-1.26623 2.84901,-1.58278 3.79869,-1.58278 3.16557,-0.31657 6.01458,-0.63312 8.86361,-0.94968 7.91392,-0.94967 20.57622,-3.16557 21.5259,-13.29541 0.63311,-8.86361 -2.2159,-19.62656 -8.54705,-25.64115 -2.2159,-2.53246 -5.38148,-3.48214 -8.23049,-4.43181 -1.26624,-0.31655 -4.11525,-1.58279 -3.7987,-1.26623 0,0 -0.94966,-1.26623 -1.26623,-1.89935 0,-0.94967 0.63312,-2.2159 1.58279,-2.84901 2.53246,-1.89935 7.28083,0.63311 9.81328,1.58279"
     id="path34"
     style="fill:#000000;fill-opacity:1;stroke:none;stroke-width:3.16557455;stroke-opacity:1"
     inkscape:connector-curvature="0" />
  <path
     d="m 447.80116,133.10526 c 0,0 0.94967,0 1.26623,0.31656 0.94967,0 1.58279,0.63311 2.53246,0.94967 2.2159,0.94968 4.11524,2.84902 6.33115,4.11525 8.8636,5.38148 18.04377,10.12984 25.64115,17.41065 8.54705,7.91394 13.61197,17.41066 8.86361,29.12329 -0.94967,1.89935 -2.53246,3.7987 -4.11525,5.38149 -1.89935,1.89933 -4.4318,3.16556 -6.96426,4.4318 0,0 -1.58279,0.63311 -2.2159,0.31655 -0.94968,-0.94967 -0.31656,-2.53245 0,-3.16558 1.26622,-2.2159 3.48212,-4.11524 5.06491,-5.69802 3.48214,-4.11525 5.38148,-10.12984 3.16558,-15.51133 -1.89934,-3.79869 -5.38148,-7.91392 -8.54705,-10.76295 -9.49673,-8.23049 -20.57624,-14.24508 -31.65575,-20.89278 0,0 -0.94966,0.94967 -1.26623,1.58278 -0.31656,0.31655 -3.48213,6.96427 -5.69803,4.11524 -1.26623,-1.89934 0.94967,-4.74835 1.89935,-7.28081 1.26622,-4.74836 5.38147,-5.06493 9.49672,-3.16558"
     id="path36"
     style="fill:#000000;fill-opacity:1;stroke:none;stroke-width:3.16557455;stroke-opacity:1"
     inkscape:connector-curvature="0" />
  <path
     d="m 327.19277,115.69461 c 0,0 6.33115,0 9.49672,0.31655 4.4318,0.31656 10.12984,0.63311 14.24509,2.53246 0,0.31656 1.58279,-0.63311 2.2159,-0.94968 3.16557,-0.63311 4.11525,-0.63311 7.59737,-0.94967 4.74837,-0.63311 10.4464,0 15.19477,0.31656 15.82787,0.63311 31.33918,6.33115 46.53394,11.71263 5.69803,1.89935 10.12984,4.11525 15.51132,6.96426 1.89935,0.94967 3.79868,2.2159 5.06492,3.79869 1.26623,1.26623 2.84901,4.43181 1.58279,6.33115 -0.94968,1.26623 -2.84903,0.94967 -3.16558,-0.63312 0,-0.31656 -1.26623,-1.58278 -1.89935,-2.2159 -1.58278,-0.94967 -3.16557,-1.58278 -4.74836,-2.53246 -5.38147,-2.84901 -10.12984,-5.06491 -15.82787,-6.96426 -20.57624,-6.96426 -40.83591,-12.97886 -62.67838,-10.4464 0,0.31656 0.31655,0.63311 0.63312,0.94967 0.31656,0.63312 0.63311,1.26623 0.94967,1.89935 0.63311,1.89934 0.31655,4.4318 -1.89935,5.38148 -3.79869,1.26622 -6.01459,-4.11525 -6.96426,-6.33115 0,0 -0.94967,-0.63311 -1.26623,-0.63311 -0.94967,-0.31657 -1.89934,-0.63313 -2.84902,-0.94968 -3.79869,-0.63311 -5.38147,-0.94967 -9.81327,-1.26624 -6.96427,-0.63311 -14.56165,-0.31655 -21.52592,-0.31655 -20.25967,0.31655 -38.62001,4.74837 -58.24657,10.4464 0,0 -0.94966,1.26623 -1.58279,1.58279 -1.58278,0.31655 -3.16557,0.31655 -4.4318,0 -2.2159,-0.31656 -2.84901,-2.84902 -1.89935,-4.74836 0.63313,-0.94968 1.89935,-1.58279 2.84903,-1.89935 11.71262,-3.48214 12.97885,-3.79869 24.05836,-6.64771 22.15902,-5.69803 46.53395,-6.33114 69.32609,-3.79869"
     id="path38"
     style="fill:#000000;fill-opacity:1;stroke:none;stroke-width:3.16557455;stroke-opacity:1"
     inkscape:connector-curvature="0" />
  <g
     id="g1539"
     transform="matrix(3.1655745,0,0,3.1655745,-430.96234,-525.96735)">
    <path
       inkscape:connector-curvature="0"
       style="fill:#000000;fill-opacity:1;stroke:none;stroke-opacity:1"
       id="path40"
       d="m 247.8,190.2 c 0,0 0.5,0 0.8,0.1 0.3,0 0.7,0.1 1.1,0.3 1.3,0.8 2.8,2.1 1.9,3.8 -0.9,1.7 -3.2,2.7 -4.9,3.4 -0.7,0.3 -1.6,0.6 -2.4,0.6 -1.3,0 -3.2,-0.6 -3.2,-2.2 0,0 -0.2,-0.3 -0.3,-0.4 -0.1,-0.3 -0.1,-0.6 -0.1,-0.9 0,-1.1 0.4,-2 1.1,-2.8 1.8,-2 5.2,-2.3 7.7,-1.6 m -2.3,1.6 c 0,0 -0.7,0 -1.1,0.1 -0.7,0.1 -1.6,0.3 -2.3,0.7 0,0 -0.3,0.6 -0.5,0.9 -0.3,0.5 -0.6,1.3 -0.6,2 0.1,0 0.2,0.1 0.3,0.2 0.2,0.2 0.2,0.3 0.2,0.6 0,0 0.4,0.2 0.6,0.2 0.5,0 1,-0.1 1.5,-0.3 1.9,-0.6 3.6,-1.4 4.8,-3.1 0,0 -0.2,-0.3 -0.4,-0.4 -0.3,-0.3 -0.6,-0.6 -1,-0.7 -1.2,-0.5 -2.6,-0.1 -3.8,0.2" />
    <path
       inkscape:connector-curvature="0"
       style="fill:#000000;fill-opacity:1;stroke:none;stroke-opacity:1"
       id="path42"
       d="m 254.2,190.8 c 0,0 0.4,0.2 0.5,0.3 0.3,0.2 0.5,0.4 0.8,0.8 0,0 0.3,-0.3 0.5,-0.3 0.5,-0.3 0.9,-0.4 1.4,-0.5 1.7,-0.3 3.6,-0.2 5.1,0.7 0.4,0.2 1.1,0.7 1.1,1.2 0,0.4 -0.5,0.5 -0.8,0.4 -1.7,-0.3 -3.1,-0.8 -4.8,-0.4 -0.4,0 -1,0.1 -1.3,0.5 0,0 0,0.3 0,0.4 0,0.3 0.1,0.5 0.2,0.8 0.2,0.5 1.9,2.6 0.4,2.9 -0.7,0.1 -1.1,-0.6 -1.5,-1.1 -0.6,-0.7 -1.2,-1.9 -1.1,-2.9 0,0 -0.1,-0.3 -0.2,-0.5 -0.3,-0.6 -0.4,-0.9 -0.8,-1.4 0,0 0,0 0,0 0,0 0,0 0,0 0,0 -0.2,-0.2 -0.2,-0.3 0,-0.2 0.2,-0.5 0.4,-0.6 0.4,-0.1 0.9,0.3 1.1,0.5" />
    <path
       inkscape:connector-curvature="0"
       style="fill:#000000;fill-opacity:1;stroke:none;stroke-opacity:1"
       id="path44"
       d="m 266.8,191 c 0,0 0.3,0 0.4,0.1 0.2,0.1 0.5,0.4 0.7,0.7 0.4,1 -0.2,2.1 0.3,3.2 0.1,0.3 0.6,1.1 0.2,1.5 -0.4,0.3 -0.9,0.2 -1.3,-0.1 -0.6,-0.5 -1,-1.4 -1,-2.3 0,-0.4 0.1,-0.8 0.1,-1.3 0,0 -0.5,0.1 -0.6,0 -0.2,-0.2 -0.3,-0.6 -0.1,-0.8 0.7,-0.7 1,-1.5 2,-0.7" />
    <path
       inkscape:connector-curvature="0"
       style="fill:#000000;fill-opacity:1;stroke:none;stroke-opacity:1"
       id="path46"
       d="m 266.6,187.6 c 0,0 0.3,0 0.5,0.1 0.4,0.1 0.7,0.2 1.1,0.3 0.1,0.1 0.1,0.1 0.2,0.1 0.6,0.1 1.2,0.2 1.7,0.3 0.3,0 0.7,0.3 0.6,0.6 0,0.4 -0.4,0.5 -0.7,0.5 -0.9,-0.1 -1.9,-0.2 -2.8,-0.2 0,-0.1 0.1,0.4 0,0.6 0,0.4 -0.2,0.8 -0.6,0.8 -0.9,0 -1.3,-1.8 -1,-2.5 0.4,-1.1 1.9,-0.4 2.7,-0.1" />
    <path
       inkscape:connector-curvature="0"
       style="fill:#000000;fill-opacity:1;stroke:none;stroke-opacity:1"
       id="path48"
       d="m 278.5,190.1 c 0,0 0.4,0 0.5,0.1 0.3,0.1 0.5,0.3 0.7,0.6 0.4,0.7 -0.2,1.9 -0.9,2.3 0,0 0.3,0.6 0.4,0.9 0.3,0.5 0.6,1.1 0.9,1.7 0.8,1.5 1.7,3 2.5,4.5 0.4,0.9 2.1,2.8 1.4,4 -0.4,0.8 -1.5,0.8 -2.3,0.6 -1.9,-0.3 -3.1,-1 -4.7,-2 -0.6,-0.4 -1.2,-1.3 -0.9,-2.1 0.1,-0.3 0.4,-0.6 0.6,-0.8 0.3,-0.4 0.9,-0.3 1.1,0.2 0,0.2 -0.3,0.6 -0.1,0.7 1.8,1.2 2.3,1.7 4.1,2 0.1,0.1 -0.3,-0.6 -0.5,-0.9 -0.3,-0.7 -0.7,-1.3 -1,-2 -1,-1.9 -2,-3.8 -3,-5.8 0,0 -1.6,1 -2.4,1.5 -0.9,0.5 -3,1.4 -3.5,-0.1 -0.3,-0.8 0.5,-1.7 1.1,-2.1 0.5,-0.4 0.9,-0.7 1.4,-1 1.2,-0.9 3.7,-3.1 5.5,-2 m -1.2,1.5 c 0,0 -0.6,0.2 -0.9,0.3 0,0 0.5,0.1 0.8,0.2 0,0 0.1,-0.3 0.1,-0.5" />
    <path
       inkscape:connector-curvature="0"
       style="fill:#000000;fill-opacity:1;stroke:none;stroke-opacity:1"
       id="path50"
       d="m 285.5,192.1 c 0,0 0.4,0.1 0.6,0.2 0.3,0.3 0.5,0.7 0.5,1.1 0.1,0.9 -0.4,1.9 0.4,2.7 0,0 0.4,-0.2 0.6,-0.2 0.2,0.1 0.4,0.4 0.5,0.7 0,0.8 -0.6,1.5 -1.5,1.3 -2.1,-0.3 -2,-3.1 -1.8,-4.7 0,0 -0.2,0 -0.2,-0.1 -0.1,-0.2 -0.2,-0.6 0.1,-0.7 0.5,-0.3 0.9,-0.4 1.5,0 m -1.2,0.9 c 0,0 0,0 0,0" />
    <path
       inkscape:connector-curvature="0"
       style="fill:#000000;fill-opacity:1;stroke:none;stroke-opacity:1"
       id="path52"
       d="m 285.1,187.9 c 0,0 0.5,0.2 0.7,0.3 0.5,0.5 1.5,1.9 1.1,2.5 -0.6,0.9 -1.7,-0.7 -1.9,-0.9 0,0 -0.3,-0.1 -0.4,-0.3 -0.1,-0.2 -0.4,-0.6 -0.3,-0.9 0.2,-0.8 1,-0.7 1.5,-0.4" />
    <path
       inkscape:connector-curvature="0"
       style="fill:#000000;fill-opacity:1;stroke:none;stroke-opacity:1"
       id="path54"
       d="m 296.1,191 c 0,0 0.5,0.1 0.7,0.2 0.4,0.2 0.8,0.4 1.1,0.8 0.9,1 1.3,2.4 1.5,3.7 0,0.5 -0.1,1.4 -0.8,1.5 -1.3,0.2 -1.4,-2.5 -1.8,-3.2 -0.2,-0.3 -0.5,-1.1 -1,-1.1 -0.4,0.1 -0.8,0.5 -1,0.7 -0.1,0.1 -0.6,0.6 -0.8,0.8 -0.5,0.6 -1.1,2.2 -2.2,2.1 -0.9,-0.1 -1.2,-1.2 -1.5,-1.9 -0.2,-0.5 -0.5,-1.1 -0.7,-1.6 -0.1,-0.2 -0.5,-0.7 -0.3,-0.6 0,0 -0.2,-0.6 -0.1,-0.8 0.2,-0.2 0.5,-0.2 0.7,-0.2 1.1,0.2 1.6,1.7 2,2.5 0,0 0.3,-0.4 0.5,-0.6 0.3,-0.4 0.6,-0.7 1,-1 1.1,-1.1 2.4,-1.7 3.9,-0.8" />
    <path
       inkscape:connector-curvature="0"
       style="fill:#000000;fill-opacity:1;stroke:none;stroke-opacity:1"
       id="path56"
       d="m 286.3,191.8 c 0,0 0.5,0.3 0.6,0.5 0.1,0.2 0,0.6 -0.2,0.8 -0.5,0.4 -2.7,1.1 -2.9,0 -0.2,-0.4 0.3,-0.8 0.6,-1 0.8,-0.3 1.9,-0.6 2.5,0.2" />
  </g>
  <g
     id="g1568"
     transform="matrix(3.1655745,0,0,3.1655745,-430.96234,-525.96735)">
    <path
       inkscape:connector-curvature="0"
       style="fill:#000000;fill-opacity:1;stroke:none;stroke-opacity:1"
       id="path72"
       d="m 402.3,345.2 c 0,0 0.4,0.1 0.5,0.2 0.3,0.2 0.6,0.5 0.8,0.8 0.5,0.8 0.5,1.9 0.5,2.8 0.3,2.9 -0.1,6 -0.4,8.9 0,0.1 0.5,-0.1 0.8,-0.1 0.5,-0.1 1.1,-0.1 1.6,-0.2 1,-0.1 2,-0.2 3,-0.3 2.4,-0.2 5.1,0 7.5,0.1 0.3,0 0.5,0 0.7,-0.1 0.2,0 2.5,-1.3 2.2,0.1 -0.1,0.2 -0.2,0.3 -0.3,0.4 -0.4,0.4 -0.7,0.8 -1.1,1.1 -0.8,0.5 -1.8,0.4 -2.7,0.4 -3.2,0 -6.3,0.1 -9.6,0.3 -0.7,0.1 -1.5,0.1 -2.2,0.5 -0.5,0.2 -1,0.8 -1.6,0.5 -1,-0.4 -0.4,-1.4 -0.3,-2.2 0.3,-2.5 0.4,-5.1 0.6,-7.6 0.1,-1.2 0.1,-2.3 0,-3.4 0,-0.2 -0.4,-1.1 -0.4,-1.1 0,0 -0.5,0 -0.6,-0.1 -0.2,-0.2 -0.2,-0.5 -0.1,-0.7 0.5,-0.7 1.5,-0.2 1.9,0.2" />
    <path
       inkscape:connector-curvature="0"
       style="fill:#000000;fill-opacity:1;stroke:none;stroke-opacity:1"
       id="path74"
       d="m 424.3,348 c 0,0 0.7,0 1.1,0.1 1,0.3 1.2,0.4 2.1,0.8 1.8,0.8 3.8,2.9 3.4,5 -0.4,1.7 -1.8,2.7 -3.1,3.7 -2.4,1.6 -6.4,2.9 -9,1.2 -1.5,-1 -1.8,-2.7 -1,-4.1 0.2,-0.5 1,-1.3 1.6,-1.2 0.6,0.1 0.5,0.7 0.2,1.1 -0.5,0.8 -0.9,2.1 0.2,2.6 2.3,1.3 5.3,-0.2 7.2,-1.4 0.7,-0.5 1.6,-1.2 1.9,-2 0.2,-0.8 -0.3,-1.7 -0.9,-2.2 -1.5,-1.3 -3.8,-2.2 -5.8,-1.2 -1,0.4 -1.8,1.7 -1.1,2.7 0.3,0.5 1.4,0.6 1.1,1.3 -0.1,0.3 -0.5,0.4 -0.8,0.3 -0.7,-0.3 -1.4,-0.5 -1.8,-1.2 -1.5,-2.3 0.6,-4.7 2.8,-5.3 1.4,-0.4 2.7,-0.1 4.1,0.2" />
    <path
       inkscape:connector-curvature="0"
       style="fill:#000000;fill-opacity:1;stroke:none;stroke-opacity:1"
       id="path76"
       d="m 444,348.6 c 0,0 0.6,0 0.8,0.1 0.6,0.2 1.1,0.6 1.1,1.3 0,0.4 -0.4,1.3 -0.9,1.4 -0.3,0.1 -0.9,0.2 -0.9,-0.3 0,-0.3 0.1,-0.4 0.2,-0.6 0,0 -0.3,0 -0.4,0 -0.2,0 -0.5,0 -0.8,0.1 -0.5,0.1 -1.2,0.3 -1.7,0.4 -0.5,0.2 -1.1,0.4 -1.6,0.6 -0.5,0.2 -1.1,0.5 -1.6,0.7 -1.2,0.5 -3.8,1.9 -3.3,3.6 0.6,2.4 4.1,2.4 6,2.3 0.7,0 1.5,-0.1 2.3,-0.1 0.9,0 1.8,-0.2 2.8,0 0.3,0 0.6,0.4 0.4,0.8 0,0.1 -0.3,0.3 -0.4,0.3 -1,0.4 -2,0.8 -3,0.9 -3,0.2 -7.4,0.6 -9.4,-2.2 -0.3,-0.5 -0.5,-0.9 -0.7,-1.5 -1,-2.9 2.6,-5.2 4.8,-6.1 0.6,-0.2 1.1,-0.4 1.7,-0.7 0.5,-0.2 1.5,-0.4 1.8,-0.5 1.2,-0.4 2.7,-0.8 4,-0.3" />
    <path
       inkscape:connector-curvature="0"
       style="fill:#000000;fill-opacity:1;stroke:none;stroke-opacity:1"
       id="path78"
       d="m 454.4,348.5 c 0,0 0.3,0 0.5,0 0.3,0 0.5,0.2 0.8,0.3 0.8,0.4 1.5,1.1 1.9,1.8 1,1.5 1.4,3.3 2,4.9 0.3,1 0.9,2.2 1.2,3.1 0.3,0.6 0.9,1.5 0.8,2.2 0,0.6 -0.7,1.1 -1.2,1 -1,-0.3 -1.5,-1.5 -2.2,-2.3 -0.2,-0.4 -0.2,-1.2 0.4,-1.1 0,0 -0.7,-1.6 -0.9,-2.4 -0.3,-0.6 -0.5,-1.3 -0.7,-1.9 -0.4,-1 -1,-3.5 -2.5,-3.7 -0.5,0 -1.2,1 -1.4,1.3 -0.8,1.2 -1.6,2.3 -2,3.7 -0.4,1.2 -0.4,2.5 -0.9,3.7 -0.2,0.7 -0.9,1.1 -1.7,0.9 -0.2,-0.1 -0.9,-0.2 -1,-0.5 -0.2,-0.5 0.3,-0.6 0.7,-0.6 0,0 0.2,0 0.3,0 0,0 0,-0.5 0,-0.8 0.1,-0.8 0.2,-1.5 0.4,-2.3 0.7,-2.1 1.6,-3.8 2.9,-5.6 1,-1.4 2.2,-2.1 3.9,-1.4" />
    <path
       inkscape:connector-curvature="0"
       style="fill:#000000;fill-opacity:1;stroke:none;stroke-opacity:1"
       id="path80"
       d="m 462.6,351.1 c 0,0 0.2,0.1 0.3,0.2 0.2,0.2 0.2,0.5 0,0.7 -0.5,0.9 -1.4,1.7 -2.2,2.4 -1.7,1.3 -3.9,1.3 -6,1.6 -1.2,0.2 -2.1,0.3 -3.3,0.3 -0.2,-0.1 -0.8,0.1 -0.6,-0.1 0,-0.1 -0.3,0.1 -0.4,0.1 -0.2,0 -0.5,-0.3 -0.6,-0.5 -0.1,-0.4 0.3,-0.9 0.6,-1.1 0.8,-0.6 2.3,-0.5 3.2,-0.6 2,-0.2 4,-0.3 5.9,-0.8 0.8,-0.2 2.2,-1.7 2.6,-1.9 0.4,-0.4 0.8,-0.3 1,0.2" />
    <path
       inkscape:connector-curvature="0"
       style="fill:#000000;fill-opacity:1;stroke:none;stroke-opacity:1"
       id="path82"
       d="m 466,349.6 c 0,0 0.6,0.1 0.8,0.3 0.5,0.3 0.8,0.9 1,1.4 0.9,2 1.4,4.1 1.4,6.2 0,0.1 2.2,0 3.4,-0.1 1.4,-0.1 2.9,-0.2 4.4,-0.3 0.8,-0.1 3.4,-1.2 3.3,0.4 -0.1,1.2 -2.1,1.4 -2.9,1.5 -2.8,0.4 -6.1,0.1 -8.8,0.6 0,0 -0.3,0.3 -0.5,0.3 -0.4,0.1 -0.9,-0.1 -1.2,-0.4 -0.2,-0.3 -0.1,-1.2 0.2,-1.4 0,0 0.1,-0.5 0.1,-0.7 0.1,-0.5 0,-0.9 0,-1.3 -0.1,-1.1 -0.5,-2.2 -0.9,-3.1 -0.4,-1 -0.4,-1.9 -1.4,-1.8 -0.1,0 -0.7,0.1 -0.8,-0.1 -0.2,-0.3 -0.1,-0.6 0.1,-0.8 0.7,-0.8 1.8,-0.9 2.7,-0.4" />
  </g>
  <path
     d="m 920.10488,522.15438 c 0,0 2.84901,0 4.4318,0 1.26624,0 2.84902,0 4.43181,0.31655 4.4318,0.31656 10.76295,2.53246 13.61196,6.96426 2.2159,4.11525 -0.94967,8.54705 -5.69803,7.59739 -1.89934,-0.63313 -3.79869,-3.48214 -0.63312,-3.7987 0,0 0.63312,-0.31655 0.94968,-0.31655 0,0 -1.26623,-1.58279 -1.89935,-1.89935 -1.58279,-1.26623 -3.48213,-1.89934 -5.38148,-2.53247 -6.33114,-0.94966 -12.66229,-0.31655 -18.99344,0.31657 0,0 0.63312,0.63311 1.26623,0.94967 0.94968,0.31655 1.58279,0.94968 2.2159,1.89934 1.58279,1.58279 1.58279,4.43181 -0.94967,5.38149 -1.89934,0.94966 -4.74836,-0.94968 -6.33115,-1.89935 -2.2159,-1.26623 -5.69803,-2.2159 -7.59738,-4.4318 0,0 -2.84901,-0.63313 -4.11525,-0.94968 -3.48212,-0.31656 -6.6477,-0.94967 -10.12983,-0.63311 -9.81328,0.63311 -19.31,1.89934 -28.80673,5.38147 -0.31656,0 1.26623,0 1.58279,0.31655 1.26623,0 2.84901,0.63313 3.79869,1.58279 1.58278,1.26624 1.89934,3.48214 0.63311,5.06493 -2.84901,3.48213 -11.07951,1.89935 -14.24509,-0.31657 0,0 -1.58278,0.31657 -2.53246,0.31657 -1.58279,0.31656 -2.84901,0.94967 -4.11524,1.58278 -3.48213,0.94968 -6.0146,2.53247 -8.86361,4.11525 -3.48214,2.2159 -7.28082,5.38148 -9.81329,7.91394 -4.74836,4.74836 -10.12983,9.81327 -12.66229,16.14442 -2.53246,6.64772 -3.79869,16.14444 1.58278,21.84247 0.63313,0.94967 2.84903,2.53246 4.11525,2.84902 0.63311,0 3.16558,0.31655 3.16558,0.31655 0,0.31656 -1.58279,0.31656 -1.58279,0.31656 -0.31655,0.63312 0.63311,-0.31656 1.26624,0 0.63311,0 1.58278,0.63312 1.89933,1.58279 0.94968,3.48213 -4.4318,3.16558 -6.01458,2.84901 -0.31657,0 -1.26624,0.31657 -1.58279,0.63312 -1.58279,0.63312 -3.16558,1.58278 -4.4318,2.84902 -3.16558,3.79869 -5.06492,8.23049 -5.06492,13.29541 0.31656,11.39606 12.97884,19.94313 22.47557,23.1087 12.34575,4.11524 26.59084,3.79869 38.93657,0.94966 3.16558,-0.63311 5.38148,-3.79868 6.33115,-6.6477 0.31655,-1.26623 0.31655,-2.53246 0.63311,-3.48213 1.26623,-1.89934 3.48214,-1.26623 4.4318,0.63311 0.31657,0.94967 0,2.21591 -0.31655,2.84902 0,0.31655 0.31655,2.2159 0.63312,3.16558 0,0.94967 0.31656,1.89934 0.94967,3.16557 1.58279,3.48213 5.69803,6.33115 9.18016,7.59738 16.77755,6.64771 32.92198,5.38147 50.6492,3.79869 4.11524,-0.63312 9.49673,-1.58279 12.34574,-5.06492 0.63311,-0.94967 1.89935,-2.2159 1.89935,-3.79868 0,0 -0.63313,-1.26624 -0.94968,-1.89935 -0.63311,-0.94968 -0.63311,-2.53247 0.31655,-3.48214 1.58279,-2.2159 4.43182,-0.63311 5.06493,1.58279 0,0 0.63311,0.63312 0.94967,1.26623 0.63312,0.63312 1.26623,1.58279 1.89934,2.2159 1.26624,1.89935 3.48214,2.84902 5.06493,4.11525 5.38147,3.16558 12.02918,5.06492 18.04377,6.96427 17.72721,5.38147 39.56966,5.69803 57.61346,1.26622 0,0 0,-1.26622 -0.3166,-1.58279 0,-0.31655 -2.2159,-3.79868 -2.2159,-5.06491 -0.3165,-1.58279 0.9497,-3.48214 2.5325,-3.48214 2.2159,-0.31655 3.1656,1.58279 4.7484,2.53247 3.7987,2.84901 7.9139,4.4318 12.3457,6.01458 12.3458,5.06493 25.0082,5.06493 37.987,4.11525 4.7484,-0.63311 11.3961,-1.58278 15.1948,-4.74836 0.3165,0 -0.3166,-0.94967 -0.6331,-1.58279 -0.3166,-0.94967 -0.9497,-1.58278 -1.2663,-2.53246 -0.9497,-3.16557 -2.5324,-7.91394 -0.6331,-11.07951 0.6331,-0.94966 1.8994,-2.53245 3.1656,-2.2159 2.8489,0.63311 2.5324,6.33115 2.5324,7.59739 0.6332,5.06491 5.698,9.49671 1.5829,14.24507 -4.1153,4.74836 -13.2955,5.38149 -18.9935,6.33115 -17.0941,2.84902 -34.1883,-0.63311 -49.6996,-7.91394 0,0 -0.3166,1.58279 -0.9497,2.53247 -0.9497,1.26623 -2.2159,2.2159 -4.1153,2.84902 -6.9642,2.2159 -14.8782,2.53245 -22.159,2.84901 -12.9788,0.63312 -26.59082,-0.63311 -39.25312,-4.74836 -8.54705,-2.53246 -17.0941,-5.38147 -24.05836,-11.39607 0,0 -0.63313,1.58278 -1.26624,2.21591 -1.26623,1.26622 -2.2159,2.2159 -3.79869,3.48212 -3.16557,2.2159 -7.28082,3.48214 -11.07951,3.79869 -16.46099,1.89935 -35.45444,4.43181 -51.28231,-2.53245 -6.01459,-2.53246 -13.29541,-6.33115 -15.19475,-13.29541 0,0 -0.94968,1.26622 -1.58279,1.89934 -0.63311,0.63311 -1.58279,1.58278 -2.53246,1.89935 -3.48214,1.58278 -7.91394,2.53245 -11.71262,2.84901 -13.29542,0.94967 -27.85707,0.63311 -39.88624,-5.69804 -6.64771,-3.48212 -12.97886,-8.54705 -16.46099,-15.19475 -6.0146,-10.76296 -2.21591,-24.05837 9.49672,-29.12328 0,0 -0.63312,-0.31657 -0.94967,-0.63312 -0.63311,-0.31656 -1.26623,-0.94967 -1.89935,-1.58278 -1.26622,-0.94968 -2.53246,-3.48214 -3.48212,-5.38149 -2.53246,-6.01459 -2.21591,-13.29541 0,-19.31 2.84901,-8.2305 7.91392,-13.92853 13.92852,-20.25968 7.59738,-7.91393 17.0941,-13.29541 27.5405,-16.14443 0,0 0.31655,-1.58279 0.63311,-1.89934 1.26623,-0.94967 2.2159,-2.21591 3.48214,-2.84902 5.06491,-2.2159 10.12984,-3.79869 15.51131,-5.06492 8.23049,-2.2159 17.72721,-3.48213 26.59083,-2.53246 3.16557,0 6.33115,1.26623 9.49672,1.58279 0.31656,0 1.26623,-0.31656 1.89935,-0.63311 1.26623,-0.31657 2.53245,-0.63312 3.79869,-0.94968 1.89934,-0.31656 4.4318,-0.63311 6.33115,-0.94967 5.38147,-0.63312 10.76295,-0.63312 16.14442,0"
     id="path84"
     style="fill:#000000;fill-opacity:1;stroke:none;stroke-width:3.16557455;stroke-opacity:1"
     inkscape:connector-curvature="0" />
  <path
     d="m 1117.0037,599.39439 c 0,0 2.8491,0.63311 4.1153,1.26623 2.8489,0.94967 4.7484,2.2159 7.2808,3.48213 7.2809,4.11525 13.9285,12.34575 14.2451,20.8928 0.6331,11.07951 -12.0292,18.36032 -21.5259,19.62656 -2.5325,0.63311 -5.0649,0.94967 -7.2808,0.94967 -3.7987,-0.31656 -6.3312,-1.58278 -8.8636,-4.11525 -0.9497,-0.94967 -2.216,-3.48213 -0.3166,-4.11525 0.6331,0 1.2662,0.31657 1.5828,0.63312 0,0.31656 0.3165,0.94967 0.6331,0.63311 0,0 -0.3166,-0.63311 -0.3166,-0.63311 0,0 0.9497,0.94967 1.2662,0.94967 1.2663,0.63311 2.216,1.26623 3.4822,1.26623 6.3311,0.63312 14.2451,-1.89934 18.9935,-5.38148 2.8489,-2.2159 5.3815,-4.11525 6.0146,-7.59737 1.8993,-8.54705 -8.2306,-16.77755 -14.8783,-19.62656 -1.5827,-0.94968 -5.3814,-1.58279 -6.9642,-2.53247 -2.216,-1.26622 -1.8994,-4.4318 0.3166,-5.38147 0.3165,0 -0.3166,0 -0.6331,0 0,0 1.2662,-0.31656 1.2662,-0.31656 0,0 0.3165,0 0.6331,0 0,0 0.9496,0 1.2662,0 1.2662,0.31656 2.2159,0.63311 3.4821,0.94967 1.2662,0.63311 2.5324,1.26623 4.1153,1.89935"
     id="path86"
     style="fill:#000000;fill-opacity:1;stroke:none;stroke-width:3.16557455;stroke-opacity:1"
     inkscape:connector-curvature="0" />
  <path
     d="m 1117.6368,603.8262 c 0,0 0,0 0,0 m 0,0 c 0,0 0.9497,-1.89935 1.2662,-2.53246 1.8994,-3.48214 4.1153,-6.01459 4.1153,-9.81329 -0.9497,-11.07951 -5.0649,-25.64115 -17.0941,-28.80673 0,0 -0.3165,0.94968 -0.3165,1.58279 -0.3166,0.63311 -0.3166,1.26623 -0.6331,1.89935 -0.6331,1.58279 -2.216,2.53245 -4.1153,2.2159 -4.1153,-0.94967 -2.849,-6.33115 -1.8993,-8.86361 0.3165,0 -0.3166,-1.26623 -0.6331,-1.58279 -0.6332,-0.94967 -0.9498,-1.89935 -1.8994,-2.53246 -2.5324,-3.16557 -5.6981,-5.38147 -9.4968,-7.28081 -11.7126,-6.0146 -24.6914,-9.18018 -37.9869,-6.33115 0,0 0.6331,0.94966 0.6331,1.58279 0.6331,0.94966 1.2662,1.89933 1.5828,2.84901 0.6331,3.48213 1.5828,8.86361 -3.4822,9.18016 -6.3311,0.63311 -10.4464,-8.54705 -8.2305,-13.92852 0,0 -0.6331,-0.31657 -0.9496,-0.63312 -0.6331,0 -2.2159,-0.63311 -3.1656,-1.26623 -2.849,-0.63312 -6.0146,-1.26623 -8.8636,-1.89934 -7.9139,-1.26624 -16.7776,0.31655 -25.0081,1.26622 0,0 0,0.94968 -0.3165,1.26624 0,0.63311 -0.3166,1.26623 -0.9497,1.89934 -1.26621,0.94967 -3.16556,1.26624 -4.74835,0.63311 -2.84901,-1.26622 -6.33115,-6.01459 -2.2159,-8.23049 0,0 -0.63311,-0.63311 -0.94967,-0.94967 -0.63312,-0.31656 -1.58279,-0.94968 -2.2159,-1.26623 -2.53247,-1.26623 -5.06493,-2.21591 -7.59739,-2.84902 -9.18016,-2.2159 -18.04377,-2.53245 -27.22394,-0.63311 -5.38147,0.94967 -10.4464,2.84901 -15.51131,5.06492 -1.58279,0.63311 -3.48214,2.84901 -5.06492,3.48213 -2.2159,0.31656 -3.16558,-2.2159 -2.84902,-3.79869 0.31655,-1.89935 1.89934,-3.16558 3.48213,-4.4318 3.7987,-2.84903 9.81329,-4.11525 14.24509,-5.38148 11.07951,-3.48213 25.00804,-4.11525 36.08755,-0.31656 5.38148,1.89935 11.39607,4.11525 14.24508,9.49673 0,0 3.16555,-0.63312 4.74835,-0.63312 3.1656,-0.31656 6.0146,-0.63312 9.1802,-0.94967 9.4967,-0.31656 22.159,-0.31656 30.0729,5.69804 0.3166,0 0.9497,-0.31657 1.2663,-0.63313 0.6331,0 1.5828,-0.31655 2.2159,-0.63311 1.8993,-0.31655 3.7987,-0.63311 5.3815,-0.94968 3.4821,-0.31655 7.5974,-0.31655 11.0796,0 14.5616,0.94968 33.555,7.59739 40.5194,21.20935 0.3165,0.31656 0.9496,0.31656 1.5827,0.31656 0.6331,0 1.5828,0.31657 2.5325,0.63312 3.1655,0.94967 5.6981,2.53246 8.2305,4.74836 6.3311,5.69804 10.4464,13.92854 12.0291,22.79214 0.9498,5.38147 1.2663,11.71262 -2.5324,16.46098 -1.2662,1.58279 -4.1153,4.74837 -6.3311,5.38148 -1.2663,0.31656 -3.1656,-1.26623 -2.216,-2.53245"
     id="path88"
     style="fill:#000000;fill-opacity:1;stroke:none;stroke-width:3.16557455;stroke-opacity:1"
     inkscape:connector-curvature="0" />
  <path
     d="m 293.63768,317.97481 c 0,0 0.94967,0 1.26623,0 0.94967,0.31656 1.58278,1.26624 1.89935,2.2159 0.31655,1.89935 0.31655,6.96427 0.31655,7.91394 0.63311,8.2305 3.16557,16.46098 5.38147,24.37492 2.21591,9.18018 7.91394,16.46099 12.97886,24.37493 6.96427,10.12983 15.19475,19.62656 23.42525,28.80673 21.52591,24.05836 48.11674,43.36837 75.34067,60.14591 29.43985,18.36034 59.5128,36.08755 90.852,50.33264 39.56967,18.36033 79.13936,35.13788 121.55806,45.58427 18.67688,4.43181 37.35378,9.18017 56.03067,11.71262 6.01459,0.94968 12.34574,1.89935 18.36032,2.84903 1.26624,0.31655 2.84903,1.26622 2.21592,2.84901 -0.94968,2.84901 -7.28083,1.89935 -7.91394,1.89935 -6.0146,0 -12.34575,-0.94967 -18.04377,-2.21591 -29.12329,-5.38148 -58.56314,-11.39606 -86.73675,-20.89279 -56.98035,-18.99345 -110.79511,-45.90083 -162.39398,-76.29034 -24.05836,-13.92853 -48.74985,-29.43984 -69.64264,-48.11674 -15.19476,-13.29541 -29.43983,-27.85705 -41.46902,-44.31804 -6.64771,-8.86361 -14.24509,-18.04377 -18.67689,-28.49017 -3.79869,-9.49672 -6.33115,-20.57624 -7.28082,-30.38951 -0.31656,-2.21591 -1.89935,-16.14444 5.06491,-11.39607 m -2.84901,2.84901 c 0,0 0,0 0,0 0,0.31656 -0.31656,0 -0.31656,0"
     id="path90"
     style="fill:#808080;fill-opacity:1;stroke:none;stroke-width:3.16557455;stroke-opacity:1"
     inkscape:connector-curvature="0" />
  <path
     d="m 674.13974,562.99029 c 0,0 2.2159,0 3.16558,0.31655 2.53245,0.63311 6.33115,1.58278 9.18016,2.84902 6.6477,2.53245 12.02918,5.69803 17.72721,10.44639 2.53246,1.89935 8.86361,5.38147 9.81329,9.18017 0.63311,3.79869 -2.84902,5.38148 -5.69804,5.69803 -6.96426,0.31656 -12.34574,0.94967 -18.99345,-0.63311 -1.89934,-0.63312 -3.79869,-0.94968 -5.38147,-1.89934 -1.58279,-0.94968 -0.94968,-3.7987 0.94967,-4.11525 1.89935,-0.31656 3.79869,0 5.69804,0 1.58278,-0.31656 3.48212,0.31655 4.74836,0.63311 3.16557,0.31656 6.6477,0 9.81327,-0.31656 0,0 -0.31655,-0.31655 -0.63311,-0.31655 -2.2159,-1.89935 -4.74836,-4.11525 -7.28082,-6.0146 -6.33115,-4.4318 -11.71263,-6.6477 -19.31,-8.54705 0,-0.31655 -0.63311,0.31656 -1.26624,0.63312 -1.26622,0 -2.2159,-0.31656 -3.48212,-0.31656 -2.2159,0 -5.06493,-1.58279 -4.43182,-4.11525 1.58279,-6.96426 14.87822,-1.26622 17.09412,-0.63311"
     id="path92"
     style="fill:#808080;fill-opacity:1;stroke:none;stroke-width:3.16557455;stroke-opacity:1"
     inkscape:connector-curvature="0" />
  <path
     d="m 361.69753,513.60731 c 0,0 0.94967,0 1.58279,0 0.94967,0.31657 1.58278,1.58279 1.58278,2.53247 0,1.26623 -0.63311,2.53246 -0.94967,3.79868 -0.63311,2.21592 -0.94968,4.74837 -1.26623,7.28083 0,0 -0.31656,2.84901 -0.31656,4.4318 -0.31655,1.89935 -0.31655,4.11525 0,6.33115 0.31656,3.48214 1.26624,11.39607 6.0146,11.71263 1.58279,0.31656 3.48213,-0.63312 5.06491,-1.26623 0,0 -0.31655,-1.58279 0,-2.2159 0,-0.94968 0.31657,-2.2159 0.63312,-3.16558 1.89935,-3.79868 4.43181,-7.28082 8.86361,-7.91393 8.2305,-1.26623 19.94312,5.06492 21.84246,13.61197 1.89935,9.81328 -13.61196,12.6623 -19.94311,9.81328 -2.21591,-0.94968 -6.64771,-3.16558 -6.64771,-6.01459 0,0 -0.94968,0.63311 -1.58279,0.94967 -0.94968,0.63311 -1.89934,0.94967 -3.16558,1.26623 -2.2159,1.26622 -5.06491,1.58278 -7.59737,0.63311 -5.38148,-1.58279 -7.91394,-7.28081 -8.86361,-12.02917 0,0 -1.26623,1.89933 -2.2159,2.84901 -2.2159,2.53246 -4.4318,5.38147 -7.59738,6.96426 -8.86361,4.11525 -23.74181,7.28082 -32.28886,0 -1.26624,-1.26623 -2.53246,-2.84901 -3.16557,-4.74836 -1.26624,-2.2159 -1.89935,-4.4318 -1.58279,-6.96426 0.31655,-3.79869 2.84901,-6.96427 6.01459,-8.86362 5.69803,-3.79868 12.02918,-6.96426 18.99345,-7.59737 0,0 0.94967,-0.31656 1.58278,-0.31656 0,0 0.63312,0.31656 0.94968,0.31656 0,0 0.94966,0 1.26622,0.31656 0.63312,0 1.89935,0.31655 2.53247,0.94966 0.94967,1.26624 0.94967,3.16558 -0.31657,4.11525 -1.58278,1.58279 -5.06491,0.63312 -6.96426,0.94968 -0.94967,0.31655 -2.2159,0.31655 -3.16557,0.94967 -4.11525,1.26623 -8.54705,2.84902 -11.71263,5.69803 -1.26622,1.26624 -2.84901,2.53246 -2.84901,4.43181 -0.31656,0.94968 0.31655,2.2159 0.94966,3.48213 0.31656,0.63312 0.63313,1.26623 1.26624,1.89935 3.16557,3.79868 9.18016,3.48213 13.29541,3.48213 9.81328,-0.31656 19.62656,-4.43181 24.05836,-13.29542 0.31656,0 0,-4.11524 0,-6.33115 0.31656,-1.89934 0.31656,-3.48213 0.63311,-5.38148 0,-1.58278 0.31657,-3.16557 0.63313,-4.74836 0.63311,-2.84901 2.84901,-10.76295 6.96426,-6.96426 m 19.94311,26.90739 c 0,0 -0.63311,0.31656 -1.26622,0.31656 -0.63311,0.31655 -1.26623,0.63311 -1.58279,1.26622 0,0 0.94968,0 1.26623,0.31657 0.94967,0.31655 1.89935,1.26622 2.21591,2.2159 0.31655,2.2159 -2.21591,4.4318 -0.31656,6.01458 3.79868,3.16558 10.12983,1.89935 13.92852,-0.63311 0,-0.31656 -0.31655,-1.58279 -0.63311,-2.2159 -0.94968,-1.58279 -2.2159,-2.84902 -3.48213,-3.79869 -3.16557,-2.84902 -9.18017,-4.74836 -12.6623,-2.21591"
     id="path94"
     style="fill:#808080;fill-opacity:1;stroke:none;stroke-width:3.16557455;stroke-opacity:1"
     inkscape:connector-curvature="0" />
  <path
     d="m 411.39705,529.75175 c 0,0 1.58279,0.31655 2.2159,0.94968 0.94968,0.94966 0.94968,3.16557 1.26623,4.4318 0.31656,4.11525 0,12.6623 2.84902,16.46098 0,0 0.63311,-1.89934 0.94968,-2.84901 0.31655,-0.94967 0.94966,-2.2159 1.58278,-3.16557 1.89934,-3.48214 5.06492,-8.2305 9.18017,-9.49673 8.54705,-2.84902 12.97885,6.96426 15.82787,12.97885 0,0 -0.31656,-0.63311 0,-0.63311 0,-0.31655 0.94968,-0.31655 1.26623,-0.31655 1.26623,0.31655 2.2159,1.58278 1.89935,2.84901 -0.63312,2.53246 -4.11525,4.11525 -6.33115,3.16557 -4.11525,-1.58278 -3.48214,-7.28082 -6.33115,-10.12983 -1.26624,-0.94968 -3.16558,-2.53246 -4.74837,-1.58279 -3.16557,1.58279 -6.01458,6.6477 -6.96426,9.81328 -0.94967,3.16557 -1.26624,9.49672 -6.33115,7.91393 -5.69804,-1.89934 -7.59738,-11.71262 -7.91394,-16.46098 0,-1.58279 -0.31656,-3.79869 -0.31656,-5.38148 0,-1.58279 -0.63311,-11.07951 3.79869,-7.91394"
     id="path96"
     style="fill:#808080;fill-opacity:1;stroke:none;stroke-width:3.16557455;stroke-opacity:1"
     inkscape:connector-curvature="0" />
  <path
     d="m 464.26215,535.44979 c 0,0 0.94966,0.31655 1.58279,0.31655 0.94966,0 1.89933,0.31656 2.53245,0.63311 2.53246,1.89935 4.43181,4.43181 3.48213,7.91394 -0.94967,4.11525 -6.01458,7.28082 -10.12983,8.2305 -2.53246,0.63311 -4.74836,1.89934 -6.33115,0 0,0 0.31655,0.94967 0.63311,1.58278 0.63311,0.94968 1.58279,1.58279 2.2159,2.53247 1.58279,1.89934 4.43181,3.16557 6.96426,3.79868 5.38149,0.94968 8.86361,-1.26623 13.61198,-2.84902 1.89935,-0.63311 3.79868,0.63312 3.16557,2.84902 -1.89935,4.4318 -7.59737,5.69804 -11.39606,6.33115 -12.34575,1.89934 -29.12329,-12.34574 -19.31001,-24.37492 1.89935,-2.53246 4.4318,-3.79869 7.28082,-5.38147 3.16558,-1.58279 6.33115,-1.89935 9.49673,-0.63313 m -3.48214,5.38149 c 0,0 -0.94967,0.31655 -1.26623,0.31655 -1.26623,0.31656 -2.2159,0.63311 -3.16557,1.26624 -3.16557,1.89933 -6.33115,4.74836 -5.06492,8.8636 0,0 0,-0.63312 0,-1.26623 0,-0.31656 0.63311,-0.94967 1.26623,-0.94967 4.11524,-2.53247 6.96426,-3.79869 9.81328,-7.28083 0,0 -0.94968,-0.94966 -1.58279,-0.94966 -1.26623,0 -2.84901,0.94966 -3.79869,1.26622"
     id="path98"
     style="fill:#808080;fill-opacity:1;stroke:none;stroke-width:3.16557455;stroke-opacity:1"
     inkscape:connector-curvature="0" />
  <g
     id="g1608"
     transform="matrix(2.9763949,-1.0779311,1.0779311,2.9763949,-702.52828,-25.43381)"
     style="fill:#808080">
    <path
       inkscape:connector-curvature="0"
       style="fill:#808080;fill-opacity:1;stroke:none;stroke-opacity:1"
       id="path112"
       d="m 385.6,373.4 c 0,0 0.5,0.1 0.6,0.3 0.1,0.2 -0.1,0.5 -0.2,0.7 -0.4,0.7 -2.7,2.7 -2.7,2.7 -0.5,0.5 -1.1,1.3 -1.5,1.8 -2.7,3.2 -4.8,8.1 -4.3,12.5 0.4,3.6 2.8,8.2 6.5,9.5 0.9,0.3 2.1,0.5 3.1,0.3 0.3,-0.1 1.6,-0.6 2,-0.1 0.3,0.4 0.1,0.9 -0.3,1.1 -1.3,0.6 -2.1,1 -3.5,0.9 -3,-0.1 -5.6,-2.2 -7.1,-4.7 -1.1,-1.9 -2.2,-3.8 -2.6,-6 -0.7,-3.7 0.5,-8.3 2.5,-11.6 1.5,-2.3 3.2,-4.4 5.4,-6.1 0.5,-0.4 1.6,-1.3 1.9,-1.1 0,0 0.1,-0.2 0.2,-0.2 0.2,0 0.4,0.1 0.5,0.3" />
    <path
       inkscape:connector-curvature="0"
       style="fill:#808080;fill-opacity:1;stroke:none;stroke-opacity:1"
       id="path114"
       d="m 386,397.4 c 0,0 0.5,0.1 0.7,0.2 0.4,0.2 0.9,0.4 1.4,0.7 1.5,0.9 3.1,1.8 4,3.4 0.4,0.6 0.9,1.3 0.8,2.1 -0.2,2.3 -3.8,2.5 -5.4,2.6 -0.6,0.1 -1.4,-0.1 -1.6,-0.7 -0.2,-0.6 0.6,-1.1 1.1,-1.2 1.2,-0.1 2.8,-0.1 3.9,-0.9 0,0 -0.4,-0.7 -0.6,-1.1 -0.3,-0.6 -0.9,-1 -1.5,-1.4 -0.9,-0.8 -2,-1.2 -3.1,-1.7 -0.3,-0.2 -0.6,-0.4 -0.7,-0.8 -0.1,-0.2 -0.1,-0.5 0,-0.6 0.7,-1.2 2,-0.3 2.9,0.2" />
  </g>
  <g
     id="g1617"
     transform="matrix(3.1655745,0,0,3.1655745,-416.87749,-554.13704)"
     style="fill:#808080">
    <path
       inkscape:connector-curvature="0"
       style="fill:#808080;fill-opacity:1;stroke:none;stroke-opacity:1"
       id="path116"
       d="m 306.3,412.5 c 0,0 0.6,0 0.8,0.1 0.8,0.1 1.5,0.4 1.8,1.2 0.3,0.9 -1,1.8 -1.4,0.7 0,0 -0.5,-0.2 -0.7,-0.2 -0.5,-0.1 -1,0.1 -1.4,0.2 -1.3,0.5 -2.8,1.3 -3.4,2.6 -0.3,0.5 -0.6,1.2 -0.2,1.7 0.3,0.5 1,0.8 1.5,1 1.7,0.6 3.7,0.7 5.5,0 1.1,-0.4 1.9,-1 2.9,-1.5 0.4,-0.2 1,0.1 0.8,0.6 -0.3,1.1 -1.8,2 -2.8,2.4 -2.8,1 -6.3,1.3 -8.8,-0.8 -1.4,-1.2 -1.4,-3.3 -0.2,-4.7 1.6,-1.9 4.3,-3.7 6.9,-3.1 m 0.2,1.3 c 0,0 0.3,0 0.3,0 0,-0.1 -0.1,-0.1 -0.1,-0.1 0,0 -0.2,0.1 -0.2,0.1 0,0 0.1,0 0.2,0 0,0 0,0 0.1,0" />
    <path
       inkscape:connector-curvature="0"
       style="fill:#808080;fill-opacity:1;stroke:none;stroke-opacity:1"
       id="path118"
       d="m 311.9,410.5 c 0,0 0.5,0.1 0.8,0.2 0.5,0.4 0.9,1.1 1.1,1.7 0.5,1.9 0.3,3.8 0.8,5.7 0,0 0.2,-0.1 0.2,-0.2 0.5,-0.4 0.9,-0.9 1.3,-1.4 0.6,-0.7 1.5,-1.3 2.5,-1.1 1.5,0.3 2,2.2 3,3.2 0.8,1 2.1,1.1 3.3,1 0,0 -0.3,-0.4 -0.4,-0.6 -0.3,-0.6 -0.6,-1.2 -0.6,-1.9 -0.2,-1.8 0.3,-4.6 2.6,-4.7 1,-0.1 1.7,0.6 2.3,1.2 1.8,1.8 1.5,4.4 -0.1,6 0,0 0.5,0.1 0.7,0.2 0.4,0.1 0.9,0.1 1.3,0.1 0.9,0 1.8,-0.3 2.7,-0.4 0.4,0 0.9,0.1 1,0.6 0.1,1 -2.2,1.5 -2.3,1.5 -1.6,0.7 -3.9,0.1 -5.4,-0.6 -0.1,0 -0.5,0.2 -0.8,0.3 -0.3,0.1 -0.6,0.2 -0.9,0.3 -1,0.2 -1.9,0 -2.9,-0.3 -2,-0.5 -2.6,-2.6 -3.9,-4 0,0 -0.4,0.3 -0.5,0.4 -0.4,0.4 -0.7,0.8 -1.1,1.2 -0.7,0.8 -1.8,1.7 -2.9,1.1 -1,-0.5 -1.1,-1.8 -1.3,-2.8 -0.2,-1.6 0.3,-4.1 -0.7,-5.7 -0.1,0 -0.4,-0.3 -0.3,-0.5 0,-0.5 0.4,-0.5 0.8,-0.5 m 14.4,3.9 c 0,0 -0.3,0.2 -0.4,0.3 -0.2,0.3 -0.3,0.6 -0.4,0.9 -0.2,1.1 0.2,2.3 0.9,3.1 0.1,0 0.5,-0.3 0.7,-0.5 0.4,-0.5 0.7,-0.9 0.7,-1.5 0,-0.7 -0.9,-2.8 -1.8,-2.1 m -14.5,-3 c 0,0 0,0 0,0" />
    <path
       inkscape:connector-curvature="0"
       style="fill:#808080;fill-opacity:1;stroke:none;stroke-opacity:1"
       id="path120"
       d="m 338.4,414 c 0,0 0.4,0.1 0.6,0.1 0.2,0 0.4,0.1 0.6,0.2 0.6,0.3 1.1,1.1 0.9,1.9 -0.3,0.9 -1.8,1.5 -2.7,1.3 -0.3,-0.1 -0.5,-0.6 -0.2,-0.8 0,-0.1 0.5,-0.1 0.5,-0.1 0,-0.1 -0.2,0 -0.2,0 0,-0.2 0.3,-0.2 0.5,-0.2 0.2,-0.1 0.3,-0.2 0.5,-0.3 0,0 -0.2,-0.2 -0.3,-0.2 -0.3,0 -0.6,0 -0.9,0 -0.8,0 -1.7,0.6 -2,1.3 -0.4,1.3 1.3,2 2.3,2.2 1.4,0.2 2.8,-0.2 4.1,-0.7 0.5,-0.2 1.1,-0.5 1.4,-0.9 0.4,-0.7 0.2,-2.2 0.4,-2.9 0.2,-0.6 1,-0.6 1.1,0.1 0,0.4 -0.1,0.8 -0.1,1.1 0.1,1 0.5,1.6 0.1,2.5 -0.6,1.1 -1.8,1.7 -2.9,2.1 -2.3,0.7 -5.1,1.2 -7.1,-0.6 -1.6,-1.4 -1.5,-3.8 0.1,-5.1 1.3,-1 3.1,-1.3 4.5,-0.6" />
    <path
       inkscape:connector-curvature="0"
       style="fill:#808080;fill-opacity:1;stroke:none;stroke-opacity:1"
       id="path122"
       d="m 343.3,408.7 c 0,0 0.2,0 0.3,0 0.2,0.2 0.2,0.6 0.3,0.8 0.2,0.8 0.8,2.3 1,2.6 0.4,1 0.7,2.3 1,3.2 0.3,0.8 0.6,1.6 1.5,1.3 0.5,-0.1 0.9,-0.2 1.3,-0.4 0,0 1,-0.5 1.4,-0.4 0.5,0.1 0.8,0.6 0.6,1 -0.3,0.7 -1.3,0.9 -1.9,1.4 -0.9,0.5 -1.6,1.2 -2,2.2 0,0 0.4,0 0.7,0 0.4,0 0.8,-0.1 1.2,-0.3 1.3,-0.5 3,-0.9 4.1,-1.8 0,0 0.4,-0.5 0.8,-0.6 0.4,0 0.8,0.2 0.9,0.7 0,0 0.1,-0.3 0.2,-0.4 0.1,-0.3 0.3,-0.5 0.4,-0.7 0.4,-0.5 1.3,-0.8 1.9,-0.9 0.3,-0.1 0.7,-0.1 1.1,-0.1 1.8,0.2 5.4,0.8 5.3,3.3 0,1.2 -1.2,1.9 -2.3,2.1 -1.9,0.2 -3.7,0.1 -5.6,-0.2 -0.8,-0.2 -1.8,-0.6 -2.3,-1.3 0,0 -1.3,0.7 -2,1 -1.4,0.6 -3.1,1.5 -4.7,1.2 -2.1,-0.4 -2,-2.8 -0.7,-4.1 0,0 -0.2,-0.1 -0.3,-0.2 -0.2,-0.1 -0.3,-0.3 -0.5,-0.4 -0.4,-0.4 -0.6,-1.1 -0.8,-1.6 -0.7,-1.6 -1.2,-3.4 -1.5,-5.1 -0.1,-0.5 -0.2,-1.5 0.1,-1.9 0.2,-0.5 0.6,-0.6 0.9,-0.1 m 14.1,9.3 c 0,0 -0.5,0 -0.7,0.1 -0.6,0.2 -1.2,0.6 -0.9,1.2 0,0 0.2,0.1 0.3,0.1 0.5,0.1 0.9,0.1 1.4,0.2 1.2,0.1 2.4,0 3.5,-0.4 0,0 -0.3,-0.3 -0.4,-0.4 -0.3,-0.2 -0.6,-0.3 -0.9,-0.4 -1,-0.4 -2.4,-0.6 -3.4,-0.2" />
    <path
       inkscape:connector-curvature="0"
       style="fill:#808080;fill-opacity:1;stroke:none;stroke-opacity:1"
       id="path124"
       d="m 372.1,415.3 c 0,0 0.6,0.2 0.8,0.3 0.2,0.3 0.3,0.7 0.4,1.1 0.2,0.5 0.2,1 0.4,1.5 0.4,1 1.4,1.7 2.2,2.2 0.1,0.1 0.3,-0.1 0.4,-0.1 0.3,0 0.5,0.2 0.6,0.5 0.3,0.8 0.2,1.7 -0.8,1.8 -0.5,0 -1,-0.3 -1.3,-0.5 -1.3,-1 -2.5,-2 -3,-3.6 0,0 -0.4,0.5 -0.6,0.7 -0.5,0.6 -1.1,1.2 -1.8,1.7 -0.4,0.2 -0.7,0.4 -1.1,0.6 -1.8,0.8 -5.8,1.9 -6.5,-0.9 -0.3,-1.4 0.4,-3.1 0.8,-4.4 0.1,-0.5 0.8,-0.6 1,-0.1 0.5,1.3 -0.7,2.8 -0.1,4 0.3,0.6 1.5,0.6 2,0.5 1.8,-0.3 3.5,-1.4 4.6,-2.8 0.7,-0.8 1.2,-3.3 2.7,-2.2" />
    <path
       inkscape:connector-curvature="0"
       style="fill:#808080;fill-opacity:1;stroke:none;stroke-opacity:1"
       id="path126"
       d="m 379.9,409.1 c 0,0 0.2,0.1 0.3,0.1 0.2,0.2 0.2,0.5 0.2,0.7 0,0 -0.1,0.7 -0.1,1.1 0.1,0.7 0.2,1.3 0.4,2 0.8,2.3 1.6,4.6 2.5,6.8 0.2,0.5 0.3,1.6 -0.5,1.8 -1.1,0.1 -1.6,-1.6 -1.9,-2.3 -0.8,-2.2 -1,-2.9 -1.8,-5.3 -0.3,-0.8 -0.6,-1.7 -0.5,-2.5 0.1,-0.6 0.2,-1.7 0.7,-2.1 0.4,-0.4 0.8,-0.5 1.2,0.1" />
    <path
       inkscape:connector-curvature="0"
       style="fill:#808080;fill-opacity:1;stroke:none;stroke-opacity:1"
       id="path128"
       d="m 387.4,414.4 c 0,0 0.2,0 0.3,0.1 0.3,0.1 0.4,0.5 0.3,0.7 -0.4,0.8 -2.4,1.2 -2.7,1.3 -2.7,0.9 -5.8,0.8 -8.6,1.1 0,0 0.1,0.2 0.1,0.3 0,0 0.2,0.3 0.1,0.4 -0.1,0.3 -0.3,0.6 -0.7,0.6 -0.9,-0.2 -2,-1.8 -1.3,-2.7 0.9,-1 3.5,-0.7 4.5,-0.8 2.6,-0.4 5.2,-0.7 7.8,-1 0.4,-0.1 0.5,0.1 0.8,0.3" />
  </g>
  <path
     d="m 998.92769,738.36312 c 0,0 1.58281,0.31655 2.21591,0.63311 0,0 0.6331,0.31655 0.9497,0.31655 0.6331,0.31656 1.2662,0.63312 1.8993,1.26624 2.2159,1.26622 3.4821,3.48212 2.849,6.33115 -0.9496,3.79868 -6.3311,6.01458 -10.12982,5.38147 0,0 0,0 0,0 0,0 -1.58279,1.26623 -2.2159,1.58279 -1.58279,0.63311 -2.84902,0.31655 -4.11525,-0.31656 0,0 -0.94967,-0.63312 -1.26623,-0.94968 -0.63311,-0.31655 -1.26622,-0.63311 -1.58279,-1.26622 -1.26622,-1.58279 -1.58278,-5.69804 0.31657,-6.96427 0,0 0.94966,-1.26622 1.58278,-1.89935 0.94967,-0.94966 2.2159,-1.26622 3.79869,-1.89933 0,0 1.26623,-0.94968 1.89934,-1.26624 1.89935,-0.63311 4.11525,-1.26623 6.01461,-0.31655"
     id="path278"
     style="fill:#0000ff;fill-opacity:1;stroke:none;stroke-width:3.16557455;stroke-opacity:1"
     inkscape:connector-curvature="0" />
  <g
     id="g1622"
     transform="matrix(3.1655745,0,0,3.1655745,-356.31267,-558.36249)"
     style="fill:#0000ff">
    <path
       inkscape:connector-curvature="0"
       style="fill:#0000ff;fill-opacity:1;stroke:none;stroke-opacity:1"
       id="path280"
       d="m 414.2,433 c 0,0 0.5,0 0.7,0 0.3,0 0.6,0.1 0.9,0.2 0.7,0.2 2.4,1.4 1.5,2.4 -0.8,0.7 -1.8,-0.6 -2.6,-0.7 -2.3,-0.1 -4.7,2.1 -4.8,4.4 0,0 0.3,0.1 0.4,0.1 0.2,-0.1 0.4,-0.2 0.6,-0.4 0.6,-0.3 1.2,-0.9 1.7,-1.3 0.7,-0.6 1.8,-2 3,-2.1 1.3,0 2.4,1.8 3,2.7 0.2,0.4 0.5,0.8 0.8,1.2 0,0 0.1,0.1 0.1,0.1 0,0 -0.2,-0.4 -0.2,-0.5 0.2,-0.4 1,0.1 1.1,0.5 0.1,0.8 -1.1,1.7 -1.9,1.4 -0.5,-0.1 -0.7,-0.5 -1,-0.9 -0.6,-0.8 -1.2,-1.7 -1.9,-2.4 0,0 -1.1,0.9 -1.6,1.3 -1.3,1.1 -4.5,4 -5.9,1.1 -0.4,-0.9 -0.1,-2.2 0.4,-3.1 1.4,-2.5 4.2,-4.6 7.2,-3.8 m 0.9,1.4 c 0,0 0,0 0,0 0.1,0 0.1,0 0.1,0" />
    <path
       inkscape:connector-curvature="0"
       style="fill:#0000ff;fill-opacity:1;stroke:none;stroke-opacity:1"
       id="path282"
       d="m 427.7,428.5 c 0,0 0.5,0.3 0.7,0.6 0.3,0.5 0.3,1.4 0.3,2 0.2,2.5 0.5,5 1.5,7.3 0,0 1,-0.5 1.5,-0.5 0.4,0 0.7,0.5 0.6,0.9 -0.1,0.4 -1,0.9 -1.1,1 -0.2,0.2 -0.5,0.3 -0.7,0.4 -1.7,0.6 -2.4,-1.3 -2.8,-2.6 0,0 -0.2,0.1 -0.3,0.1 -0.2,0 -0.5,0 -0.6,-0.2 -0.3,-0.4 0.2,-0.6 0.2,-1 0.1,0 0,-0.2 -0.1,-0.3 -0.1,0 -0.4,0.6 -0.5,0.9 -0.2,0.4 -0.6,0.8 -0.8,1.2 -0.3,0.5 -0.7,0.9 -1,1.2 -0.9,1.1 -3.2,3.3 -4.6,1.6 -0.9,-0.9 -0.4,-2.3 0,-3.3 0.9,-2.2 3.4,-3.5 5.6,-3.7 0,0 0.1,-0.3 0.2,-0.4 0,-0.5 0.1,-0.9 0.2,-1.3 0.1,-0.6 0,-4.6 1.9,-3.8 0.2,0.1 0.3,0.3 0.4,0.4 m -3.5,7 c 0,0 -0.2,0.1 -0.2,0.1 -0.3,0.1 -0.5,0.2 -0.7,0.3 -0.3,0.1 -0.6,0.3 -0.9,0.5 -1,0.8 -1.4,1.8 -1.7,3 0,0 0.2,-0.1 0.3,-0.1 0.2,-0.1 0.5,-0.3 0.5,-0.4 0.4,-0.2 0.7,-0.6 0.9,-0.8 0.7,-0.7 1.4,-1.7 1.8,-2.6" />
    <path
       inkscape:connector-curvature="0"
       style="fill:#0000ff;fill-opacity:1;stroke:none;stroke-opacity:1"
       id="path284"
       d="m 439.4,427 c 0,0 0.7,0.3 0.8,0.6 0,0 0.1,0.1 0.1,0.2 0,0 0,0.1 0,0.2 0,0 0,0.2 0,0.3 0.1,0.8 0.2,1.5 0.3,2.3 0.2,1.7 0.5,3.4 1.1,5 0.5,1.2 1.4,2.1 2.3,3.1 0.3,0.4 1.2,0.7 0.7,1.4 -0.6,1 -1.8,0.2 -2.4,-0.3 -1.5,-1.3 -2.5,-3.3 -3,-5.2 -0.1,0 -0.2,0.5 -0.3,0.7 0,0.1 0.1,0.3 0.1,0.4 0.1,0.3 0.2,0.6 0.1,0.9 -0.1,0.4 -1,1.7 -1.6,1.4 0,0 -0.5,0.5 -0.7,0.8 -0.3,0.5 -0.8,1 -1.2,1.4 -0.4,0.4 -0.9,0.8 -1.2,1.1 -1.1,0.9 -3.4,1.9 -4.3,0.2 -0.4,-0.9 0.1,-2.1 0.7,-2.9 1.3,-1.9 3.8,-4.5 6.4,-4.3 0,0 0.1,-0.2 0.2,-0.4 0.1,-0.5 0.3,-1 0.4,-1.6 0.3,-1.8 0.4,-2.3 0.4,-4.2 0,0 0,-0.2 0.1,-0.3 0.1,-0.3 0.2,-0.6 0.5,-0.7 0.5,-0.2 0.9,0 1.2,0.4 m -3.7,8.8 c 0,0 -0.3,0.1 -0.5,0.2 -0.3,0.2 -0.7,0.4 -1.1,0.6 -1.3,1 -2.1,2 -2.8,3.5 0,0 0.4,-0.2 0.6,-0.2 0.3,-0.2 0.6,-0.5 0.9,-0.7 1.1,-1.1 2.2,-2.1 2.9,-3.4" />
  </g>
  <path
     d="m 1000.479,720.20141 c 0,0 1.2663,0 1.8994,0.31657 1.5828,0.63311 2.849,1.58278 3.4821,3.16557 0.9497,2.84901 -0.9497,5.69804 -3.1656,7.59738 0,0 -0.6331,0.63312 -0.9496,0.94967 0,0 0,0.31656 -0.3166,0.31656 0,0 -0.3165,0.31655 -0.3165,0.31655 0,0 -0.9497,0.63312 -1.26628,0.63312 -0.63311,0.63312 -1.58279,0.63312 -2.2159,0.94967 -2.2159,0.63311 -5.06492,0.63311 -6.33115,-1.26622 0,0 -0.94967,-0.31657 -1.26622,-0.63312 -0.63313,-0.63311 -1.26624,-1.26623 -1.58279,-2.2159 -0.63313,-2.84902 1.26622,-5.69803 3.79869,-6.64771 0,0 0.94967,-0.63311 1.58278,-1.26622 0,0 0.94968,-0.94968 1.58279,-0.94968 0,0 1.58279,-0.94967 2.53246,-0.94967 2.21592,-0.31657 3.79872,-0.31657 5.69802,0.63311"
     id="path286"
     style="fill:#0000ff;fill-opacity:1;stroke:none;stroke-width:3.16557455;stroke-opacity:1"
     inkscape:connector-curvature="0" />
  <path
     d="m 996.39523,683.59867 c 0,0 0.94967,0.31656 1.58278,0.31656 0.63312,0.31655 1.58279,0.63311 2.21589,1.26623 1.8994,1.26623 3.1656,3.79868 2.5325,6.33115 -1.2663,5.06492 -8.23052,9.49672 -12.97889,6.64771 0,0 -1.26622,0.31655 -1.58278,0 -1.26623,-0.63313 -2.2159,-1.26624 -2.84902,-2.53246 0,0 -0.63311,-0.94968 -0.94967,-1.58279 -0.63311,-0.63311 -0.63311,-1.89935 -0.63311,-3.16558 0.31655,-1.89935 2.53246,-3.79868 4.74836,-3.16557 0,0 1.58279,-1.26623 2.53246,-1.58279 0,0 0.63311,-0.63311 0.94966,-0.94967 0.63313,-0.63312 1.58279,-1.26623 2.84903,-1.26623 1.89934,-0.63311 3.48212,0.31655 5.06491,1.26623"
     id="path288"
     style="fill:#0000ff;fill-opacity:1;stroke:none;stroke-width:3.16557455;stroke-opacity:1"
     inkscape:connector-curvature="0" />
  <path
     d="m 1107.3691,828.55006 c 0,0 0,0 0,0 0,0 0.6331,0.31657 0.9496,0.63312 0.6331,0.94967 0.9497,1.89935 0.6331,3.16557 0,0 0,0 0,0 0,0 -0.9496,1.58279 -1.5827,1.58279 0,0.31656 -0.3166,0.31656 -0.3166,0.31656 0,0 -0.3166,0.31656 -0.6331,0.31656 -0.9497,0.31655 -1.5828,0.63311 -2.5325,0.94967 -1.8993,0.94967 -3.7987,2.21591 -5.698,3.16557 -4.4318,2.53246 -12.0292,8.2305 -15.8279,11.07951 -7.9139,5.38148 -15.1947,11.39608 -22.7921,17.09401 -1.5828,1.2663 -7.2808,8.2305 -11.7126,8.2305 -4.4318,0 -5.6981,-6.0145 -6.9643,-8.8636 -1.2662,-2.84895 -3.1656,-5.69795 -4.4318,-8.54697 -1.5828,-2.84901 -2.2159,-5.69804 -3.1656,-8.86361 -0.3165,0 -0.3165,0 -0.3165,0 0,0 -1.5828,0.31656 -1.8994,-0.31655 -0.6331,-0.63312 -0.3165,-1.89935 0.3166,-2.2159 1.5828,-1.58279 4.1152,-1.58279 6.0146,-0.31657 2.2159,1.89935 2.849,5.69804 4.1152,8.2305 1.8994,4.11524 5.0649,9.49675 6.9643,13.6119 0,0 0.9496,-0.9497 1.5828,-1.2662 2.5324,-2.2159 5.0649,-4.43176 7.9139,-6.33111 11.7126,-8.86361 24.3749,-20.25967 37.6703,-27.22394 2.849,-1.58278 7.914,-5.69803 11.3961,-4.43181 m -73.7579,20.25968 c 0,0 0,-0.31655 0,0"
     id="path290"
     style="fill:#0000ff;fill-opacity:1;stroke:none;stroke-width:3.16557455;stroke-opacity:1"
     inkscape:connector-curvature="0" />
  <g
     id="g1465"
     transform="matrix(3.1655745,0,0,3.1655745,-1785.3535,-942.4293)">
    <path
       sodipodi:nodetypes="cccccccccsccccsccscccccscc"
       inkscape:connector-curvature="0"
       style="fill:#000000;fill-opacity:1;stroke:none;stroke-opacity:1"
       id="path292"
       d="m 620.3,380.6 c 0,0 0.4,-0.1 0.6,0 0.4,0.3 0.6,0.7 0.6,1.2 0.1,1.6 -0.2,3.4 -0.2,5 -0.1,2.8 0.6,5.2 1,8 0.2,1.6 0,3.1 -0.1,4.7 0,0 0.3,0 0.5,-0.1 1,0 2.1,-0.1 3.1,-0.2 2.4,-0.2 7.90709,-0.0175 11.59329,0.0994 0,0 0.37531,-0.19315 0.51895,-0.18919 0.28727,0.008 0.90192,0.22745 1.18251,0.33478 0.0345,0.10314 0.39257,0.10841 0.53359,0.21214 0.0293,0.10267 0.40468,0.30952 0.53451,0.51223 l 0.0134,0.10122 0.0239,0.40218 c 0.0119,0.19964 -0.35986,0.59455 -0.61008,0.68999 -0.61521,0.18953 -1.40431,-0.0277 -2.19016,-0.0536 -0.76678,-0.12425 -2.20351,-0.0821 -2.56769,-0.0971 C 630.09801,401.018 626,401.2 623.4,401.4 c -0.9,0.1 -2.4,0.4 -3,-0.6 -0.5,-0.7 -0.1,-2.2 -0.1,-2.9 0.1,-0.6 0.1,-1.2 0.1,-1.8 -0.1,-1.7 -0.5,-3 -0.8,-4.8 -0.4,-2.2 -0.3,-4.5 -0.3,-6.8 v -0.3 c 0.1,-0.5 -0.1,-4.8 1.9,-3.4" />
    <path
       sodipodi:nodetypes="cscscccccccc"
       inkscape:connector-curvature="0"
       style="fill:#000000;fill-opacity:1;stroke:none;stroke-opacity:1"
       id="path294"
       d="m 635.9,390.2 c -2,0.5 -4.1,0.1 -6.2,0.1 -2.8,0 -5.6,-0.6 -8.4,-0.5 -0.1,0.1 -0.3,0.3 -0.4,0.3 -0.3,0 -0.4,-0.2 -0.5,-0.4 0,0 -0.2,-0.2 -0.2,-0.3 -0.1,-0.3 0,-0.7 0.3,-0.9 0.7,-0.7 1.8,-0.8 2.8,-0.8 4.1,0.3 8.1,1 12.2,0.5 2.13806,-0.0523 2.41252,1.78173 0.4,2 z m -14.5,-0.6 v -0.1" />
    <path
       inkscape:connector-curvature="0"
       style="fill:#000000;fill-opacity:1;stroke:none;stroke-opacity:1"
       id="path296"
       d="m 629.3,389.4 c 0,0 0.3,0.1 0.4,0.2 0.2,0.2 0.4,0.4 0.5,0.7 0.3,0.9 0,2 0.2,3 0,0 0.8,0.1 1.1,0.1 0.4,0.1 2.5,0.5 3.1,0.5 0.5,-0.1 2.5,-0.8 2.1,0.7 -0.1,0.3 -0.5,0.6 -0.8,0.8 -1.1,0.8 -2.6,0.3 -3.9,0.1 -1.6,-0.2 -3.2,-0.1 -3.6,-2 -0.1,-0.4 -0.1,-0.8 -0.1,-1.2 0,-0.5 0.1,-1.1 0.1,-1.7 0,0 -0.1,-0.6 0.1,-0.8 0.4,-0.6 1,-0.3 1.5,0" />
    <path
       inkscape:connector-curvature="0"
       style="fill:#000000;fill-opacity:1;stroke:none;stroke-opacity:1"
       id="path298"
       d="m 629.7,399.5 c 0,0 0.4,0.1 0.6,0.3 0.4,0.2 0.6,0.7 0.7,1.1 0.2,1.2 -0.1,2.5 0,3.8 0,0 0.9,0 1.4,0 1.1,0 2.2,0 3.4,0.1 0.5,0 1.2,-0.2 1.7,0 0.9,0.2 1.3,1.3 0.4,1.7 0,0.1 0.1,0 0.1,0.1 0,0 -0.6,0.1 -0.7,0.1 -1.7,0 -3.4,0 -5.1,0 -0.7,0 -1.4,0.1 -2,-0.1 -1.8,-0.8 -1.3,-3.6 -1.2,-5 0,0 -0.3,0 -0.4,-0.1 -0.3,-0.2 -0.2,-0.4 -0.1,-0.6 0,-0.1 0,0 0,0 0,-0.1 0,-0.1 0,-0.1 0,0 0.3,-0.9 0.7,-1.1 0.4,-0.3 0.8,-0.1 1.2,0.1" />
    <path
       inkscape:connector-curvature="0"
       style="fill:#000000;fill-opacity:1;stroke:none;stroke-opacity:1"
       id="path300"
       d="m 630.5,405.6 c 0,0 0.4,0 0.6,0 0.3,0.1 0.5,0.4 0.6,0.7 0.4,1.3 -0.2,2.9 -0.2,4.2 0,0.1 0.3,0.1 0.6,0.1 0.7,0 1.4,0 2.1,0 0.8,0 1.6,0.3 2.4,0.1 0.3,0 0.6,-0.1 0.8,-0.3 0,0 2.5,-2 2.4,-0.3 -0.2,1.8 -2.3,2.7 -3.9,2.7 -0.6,0 -1.1,-0.2 -1.7,-0.2 -1.4,0 -4.2,0.5 -4.7,-1.5 -0.2,-0.6 0,-1.3 0.1,-1.9 0.1,-0.7 -0.2,-4.7 1.8,-3.3" />
  </g>
  <g
     id="g1592"
     transform="matrix(3.1655745,0,0,3.1655745,-1024.8241,-537.04687)">
    <path
       d="m 620.3,380.6 c 0,0 0.4,-0.1 0.6,0 0.4,0.3 0.6,0.7 0.6,1.2 0.1,1.6 -0.2,3.4 -0.2,5 -0.1,2.8 0.6,5.2 1,8 0.2,1.6 0,3.1 -0.1,4.7 0,0 0.3,0 0.5,-0.1 1,0 2.1,-0.1 3.1,-0.2 2.4,-0.2 7.90709,-0.0175 11.59329,0.0994 0,0 0.37531,-0.19315 0.51895,-0.18919 0.28727,0.008 0.90192,0.22745 1.18251,0.33478 0.0345,0.10314 0.39257,0.10841 0.53359,0.21214 0.0293,0.10267 0.40468,0.30952 0.53451,0.51223 l 0.0134,0.10122 0.0239,0.40218 c 0.0119,0.19964 -0.35986,0.59455 -0.61008,0.68999 -0.61521,0.18953 -1.40431,-0.0277 -2.19016,-0.0536 -0.76678,-0.12425 -2.20351,-0.0821 -2.56769,-0.0971 C 630.09801,401.018 626,401.2 623.4,401.4 c -0.9,0.1 -2.4,0.4 -3,-0.6 -0.5,-0.7 -0.1,-2.2 -0.1,-2.9 0.1,-0.6 0.1,-1.2 0.1,-1.8 -0.1,-1.7 -0.5,-3 -0.8,-4.8 -0.4,-2.2 -0.3,-4.5 -0.3,-6.8 v -0.3 c 0.1,-0.5 -0.1,-4.8 1.9,-3.4"
       id="path1582"
       style="fill:#000000;fill-opacity:1;stroke:none;stroke-opacity:1"
       inkscape:connector-curvature="0"
       sodipodi:nodetypes="cccccccccsccccsccscccccscc" />
    <path
       d="m 635.9,390.2 c -2,0.5 -4.1,0.1 -6.2,0.1 -2.8,0 -5.6,-0.6 -8.4,-0.5 -0.1,0.1 -0.3,0.3 -0.4,0.3 -0.3,0 -0.4,-0.2 -0.5,-0.4 0,0 -0.2,-0.2 -0.2,-0.3 -0.1,-0.3 0,-0.7 0.3,-0.9 0.7,-0.7 1.8,-0.8 2.8,-0.8 4.1,0.3 8.1,1 12.2,0.5 2.13806,-0.0523 2.41252,1.78173 0.4,2 z m -14.5,-0.6 v -0.1"
       id="path1584"
       style="fill:#000000;fill-opacity:1;stroke:none;stroke-opacity:1"
       inkscape:connector-curvature="0"
       sodipodi:nodetypes="cscscccccccc" />
    <path
       d="m 629.3,389.4 c 0,0 0.3,0.1 0.4,0.2 0.2,0.2 0.4,0.4 0.5,0.7 0.3,0.9 0,2 0.2,3 0,0 0.8,0.1 1.1,0.1 0.4,0.1 2.5,0.5 3.1,0.5 0.5,-0.1 2.5,-0.8 2.1,0.7 -0.1,0.3 -0.5,0.6 -0.8,0.8 -1.1,0.8 -2.6,0.3 -3.9,0.1 -1.6,-0.2 -3.2,-0.1 -3.6,-2 -0.1,-0.4 -0.1,-0.8 -0.1,-1.2 0,-0.5 0.1,-1.1 0.1,-1.7 0,0 -0.1,-0.6 0.1,-0.8 0.4,-0.6 1,-0.3 1.5,0"
       id="path1586"
       style="fill:#000000;fill-opacity:1;stroke:none;stroke-opacity:1"
       inkscape:connector-curvature="0" />
    <path
       d="m 629.7,399.5 c 0,0 0.4,0.1 0.6,0.3 0.4,0.2 0.6,0.7 0.7,1.1 0.2,1.2 -0.1,2.5 0,3.8 0,0 0.9,0 1.4,0 1.1,0 2.2,0 3.4,0.1 0.5,0 1.2,-0.2 1.7,0 0.9,0.2 1.3,1.3 0.4,1.7 0,0.1 0.1,0 0.1,0.1 0,0 -0.6,0.1 -0.7,0.1 -1.7,0 -3.4,0 -5.1,0 -0.7,0 -1.4,0.1 -2,-0.1 -1.8,-0.8 -1.3,-3.6 -1.2,-5 0,0 -0.3,0 -0.4,-0.1 -0.3,-0.2 -0.2,-0.4 -0.1,-0.6 0,-0.1 0,0 0,0 0,-0.1 0,-0.1 0,-0.1 0,0 0.3,-0.9 0.7,-1.1 0.4,-0.3 0.8,-0.1 1.2,0.1"
       id="path1588"
       style="fill:#000000;fill-opacity:1;stroke:none;stroke-opacity:1"
       inkscape:connector-curvature="0" />
    <path
       d="m 630.5,405.6 c 0,0 0.4,0 0.6,0 0.3,0.1 0.5,0.4 0.6,0.7 0.4,1.3 -0.2,2.9 -0.2,4.2 0,0.1 0.3,0.1 0.6,0.1 0.7,0 1.4,0 2.1,0 0.8,0 1.6,0.3 2.4,0.1 0.3,0 0.6,-0.1 0.8,-0.3 0,0 2.5,-2 2.4,-0.3 -0.2,1.8 -2.3,2.7 -3.9,2.7 -0.6,0 -1.1,-0.2 -1.7,-0.2 -1.4,0 -4.2,0.5 -4.7,-1.5 -0.2,-0.6 0,-1.3 0.1,-1.9 0.1,-0.7 -0.2,-4.7 1.8,-3.3"
       id="path1590"
       style="fill:#000000;fill-opacity:1;stroke:none;stroke-opacity:1"
       inkscape:connector-curvature="0" />
  </g>
</svg>
